CGKBTJ,,
CGKMES,,
CGKPKU,,
CGKBTH,,
CGKPDG,,
CGKPLM,,
CGKPGK,,
CGKTKG,,
CGKDJB,,
CGKJOG,,
CGKSOC,,
CGKSRG,,
CGKSUB,,
CGKMLG,,
CGKDPS,,
CGKMDC,,
CGKPKY,,
CGKPNK,,
CGKBDJ,,
CGKBPN,,
CGKKOE,,
CGKKDI,,
CGKBIK,,
CGKDJJ,,
CGKTIM,,
CGKAMQ,,
CGKTTE,,
CGKPLW,,
JOGCGK,,
JOGBTG,,
JOGMES,,
JOGPKU,,
JOGBTH,,
JOGPDG,,
JOGPLM,,
JOGPGK,,
JOGTKG,,
JOGDJB,,
JOGSOC,,
JOGSRG,,
JOGSUB,,
JOGMLG,,
JOGDPS,,
JOGMDC,,
JOGPKY,,
JOGPNK,,
JOGBDJ,,
JOGBPN,,
JOGKOE,,
JOGKDI,,
JOGBIK,,
JOGDJJ,,
JOGTIM,,
JOGAMQ,,
JOGTTE,,
JOGPLW,,
PGKCGK,,
PGKBTG,,
PGKMES,,
PGKPKU,,
PGKBTH,,
PGKPDG,,
PGKPLM,,
PGKTKG,,
PGKDJB,,
PGKJOG,,
PGKSOC,,
PGKSRG,,
PGKSUB,,
PGKMLG,,
PGKDPS,,
PGKMDC,,
PGKPKY,,
PGKPNK,,
PGKBDJ,,
PGKBPN,,
PGKKOE,,
PGKKDI,,
PGKBIK,,
PGKDJJ,,
PGKTIM,,
PGKAMQ,,
PGKTTE,,
PGKPLW,,
PKYCGK,,
PKYBTG,,
PKYMES,,
PKYPKU,,
PKYBTH,,
PKYPDG,,
PKYPLM,,
PKYPGK,,
PKYTKG,,
PKYDJB,,
PKYJOG,,
PKYSOC,,
PKYSRG,,
PKYSUB,,
PKYMLG,,
PKYDPS,,
PKYMDC,,
PKYPNK,,
PKYBDJ,,
PKYBPN,,
PKYKOE,,
PKYKDI,,
PKYBIK,,
PKYDJJ,,
PKYTIM,,
PKYAMQ,,
PKYTTE,,
PKYPLW,,
BTHCGK,,
BTHBTG,,
BTHMES,,
BTHPKU,,
BTHPDG,,
BTHPLM,,
BTHPGK,,
BTHTKG,,
BTHDJB,,
BTHJOG,,
BTHSOC,,
BTHSRG,,
BTHSUB,,
BTHMLG,,
BTHDPS,,
BTHMDC,,
BTHPKY,,
BTHPNK,,
BTHBDJ,,
BTHBPN,,
BTHKOE,,
BTHKDI,,
BTHBIK,,
BTHDJJ,,
BTHTIM,,
BTHAMQ,,
BTHTTE,,
BTHPLW,,
MLGCGK,,
MLGBTG,,
MLGMES,,
MLGPKU,,
MLGBTH,,
MLGPDG,,
MLGPLM,,
MLGPGK,,
MLGTKG,,
MLGDJB,,
MLGJOG,,
MLGSOC,,
MLGSRG,,
MLGSUB,,
MLGDPS,,
MLGMDC,,
MLGPKY,,
MLGPNK,,
MLGBDJ,,
MLGBPN,,
MLGKOE,,
MLGKDI,,
MLGBIK,,
MLGDJJ,,
MLGTIM,,
MLGAMQ,,
MLGTTE,,
MLGPLW,,
TIMCGK,,
TIMBTG,,
TIMMES,,
TIMPKU,,
TIMBTH,,
TIMPDG,,
TIMPLM,,
TIMPGK,,
TIMTKG,,
TIMDJB,,
TIMJOG,,
TIMSOC,,
TIMSRG,,
TIMSUB,,
TIMMLG,,
TIMDPS,,
TIMMDC,,
TIMPKY,,
TIMPNK,,
TIMBDJ,,
TIMBNP,,
TIMKOE,,
TIMKDI,,
TIMBIK,,
TIMDJJ,,
TIMAMQ,,
TIMTTE,,
TIMPLW,,
KOECGK,,
KOEBTG,,
KOEMES,,
KOEPKU,,
KOEBTH,,
KOEPDG,,
KOEPLM,,
KOEPGK,,
KOETKG,,
KOEDJB,,
KOEJOG,,
KOESOC,,
KOESRG,,
KOESUB,,
KOEMLG,,
KOEDPS,,
KOEMDC,,
KOEPKY,,
KOEPNK,,
KOEBDJ,,
KOEBNP,,
KOEKDI,,
KOEBIK,,
KOEDJJ,,
KOETIM,,
KOEAMQ,,
KOETTE,,
KOEPLW,,
MESCGK,,
MESBTG,,
MESPKU,,
MESBTH,,
MESPDG,,
MESPLM,,
MESPGK,,
MESTKG,,
MESDJB,,
MESJOG,,
MESSOC,,
MESSRG,,
MESSUB,,
MESMLG,,
MESDPS,,
MESMDC,,
MESPKY,,
MESPNK,,
MESBDJ,,
MESBPN,,
MESKOE,,
MESKDI,,
MESBIK,,
MESDJJ,,
MESTIM,,
MESAMQ,,
MESTTE,,
MESPLW,,
SRGCGK,,
SRGBTG,,
SRGMES,,
SRGPKU,,
SRGBTH,,
SRGPDG,,
SRGPLM,,
SRGPGK,,
SRGTKG,,
SRGDJB,,
SRGJOG,,
SRGSOC,,
SRGSUB,,
SRGMLG,,
SRGDPS,,
SRGMDC,,
SRGPKY,,
SRGPNK,,
SRGBDJ,,
SRGBPN,,
SRGKOE,,
SRGKDI,,
SRGBIK,,
SRGDJJ,,
SRGTIM,,
SRGAMQ,,
SRGTTE,,
SRGPLW,,
DJBCGK,,
DJBBTG,,
DJBMES,,
DJBPKU,,
DJBBTH,,
DJBPDG,,
DJBPLM,,
DJBPGK,,
DJBTKG,,
DJBJOG,,
DJBSOC,,
DJBSRG,,
DJBSUB,,
DJBMLG,,
DJBDPS,,
DJBMDC,,
DJBPKY,,
DJBPNK,,
DJBBDJ,,
DJBBPN,,
DJBKOE,,
DJBKDI,,
DJBBIK,,
DJBDJJ,,
DJBTIM,,
DJBAMQ,,
DJBTTE,,
DJBPLW,,
BDJCGK,,
BDJBTG,,
BDJMES,,
BDJPKU,,
BDJBTH,,
BDJPDG,,
BDJPLM,,
BDJPGK,,
BDJTKG,,
BDJDJB,,
BDJJOG,,
BDJSOC,,
BDJSRG,,
BDJSUB,,
BDJMLG,,
BDJDPS,,
BDJMDC,,
BDJPKY,,
BDJPNK,,
BDJBPN,,
BDJKOE,,
BDJKDI,,
BDJBIK,,
BDJDJJ,,
BDJTIM,,
BDJAMQ,,
BDJTTE,,
BDJPLW,,
PLMCGK,,
PLMBTG,,
PLMMES,,
PLMPKU,,
PLMBTH,,
PLMPDG,,
PLMPGK,,
PLMTKG,,
PLMDJB,,
PLMJOG,,
PLMSOC,,
PLMSRG,,
PLMSUB,,
PLMMLG,,
PLMDPS,,
PLMMDC,,
PLMPKY,,
PLMPNK,,
PLMBDJ,,
PLMBPN,,
PLMKOE,,
PLMKDI,,
PLMBIK,,
PLMDJJ,,
PLMTIM,,
PLMAMQ,,
PLMTTE,,
PLMPLW,,
MDCCGK,,
MDCBTG,,
MDCMES,,
MDCPKU,,
MDCBTH,,
MDCPDG,,
MDCPLM,,
MDCPGK,,
MDCTKG,,
MDCDJB,,
MDCJOG,,
MDCSOC,,
MDCSRG,,
MDCSUB,,
MDCMLG,,
MDCDPS,,
MDCPKY,,
MDCPNK,,
MDCBDJ,,
MDCBPN,,
MDCKOE,,
MDCKDI,,
MDCBIK,,
MDCDJJ,,
MDCTIM,,
MDCAMQ,,
MDCTTE,,
MDCPLW,,
TTECGK,,
TTEBTG,,
TTEMES,,
TTEPKU,,
TTEBTH,,
TTEPDG,,
TTEPLM,,
TTEPGK,,
TTETKG,,
TTEDJB,,
TTEJOG,,
TTESOC,,
TTESRG,,
TTESUB,,
TTEMLG,,
TTEDPS,,
TTEMDC,,
TTEPKY,,
TTEPNK,,
TTEBDJ,,
TTEBNP,,
TTEKOE,,
TTEKDI,,
TTEBIK,,
TTEDJJ,,
TTETIM,,
TTEAMQ,,
TTEPLW,,
BIKCGK,,
BIKBTG,,
BIKMES,,
BIKPKU,,
BIKBTH,,
BIKPDG,,
BIKPLM,,
BIKPGK,,
BIKTKG,,
BIKDJB,,
BIKJOG,,
BIKSOC,,
BIKSRG,,
BIKSUB,,
BIKMLG,,
BIKDPS,,
BIKMDC,,
BIKPKY,,
BIKPNK,,
BIKBDJ,,
BIKBNP,,
BIKKOE,,
BIKKDI,,
BIKDJJ,,
BIKTIM,,
BIKAMQ,,
BIKTTE,,
BIKPLW,,
BTGCGK,,
BTGMES,,
BTGPKU,,
BTGBTH,,
BTGPDG,,
BTGPLM,,
BTGPGK,,
BTGTKG,,
BTGDJB,,
BTGJOG,,
BTGSOC,,
BTGSRG,,
BTGSUB,,
BTGMLG,,
BTGDPS,,
BTGMDC,,
BTGPKY,,
BTGPNK,,
BTGBDJ,,
BTGBPN,,
BTGKOE,,
BTGKDI,,
BTGBIK,,
BTGDJJ,,
BTGTIM,,
BTGAMQ,,
BTGTTE,,
BTGPLW,,
SOCCGK,,
SOCBTG,,
SOCMES,,
SOCPKU,,
SOCBTH,,
SOCPDG,,
SOCPLM,,
SOCPGK,,
SOCTKG,,
SOCDJB,,
SOCJOG,,
SOCSRG,,
SOCSUB,,
SOCMLG,,
SOCDPS,,
SOCMDC,,
SOCPKY,,
SOCPNK,,
SOCBDJ,,
SOCBPN,,
SOCKOE,,
SOCKDI,,
SOCBIK,,
SOCDJJ,,
SOCTIM,,
SOCAMQ,,
SOCTTE,,
SOCPLW,,
TKGCGK,,
TKGBTG,,
TKGMES,,
TKGPKU,,
TKGBTH,,
TKGPDG,,
TKGPLM,,
TKGPGK,,
TKGDJB,,
TKGJOG,,
TKGSOC,,
TKGSRG,,
TKGSUB,,
TKGMLG,,
TKGDPS,,
TKGMDC,,
TKGPKY,,
TKGPNK,,
TKGBDJ,,
TKGBPN,,
TKGKOE,,
TKGKDI,,
TKGBIK,,
TKGDJJ,,
TKGTIM,,
TKGAMQ,,
TKGTTE,,
TKGPLW,,
PNKCGK,,
PNKBTG,,
PNKMES,,
PNKPKU,,
PNKBTH,,
PNKPDG,,
PNKPLM,,
PNKPGK,,
PNKTKG,,
PNKDJB,,
PNKJOG,,
PNKSOC,,
PNKSRG,,
PNKSUB,,
PNKMLG,,
PNKDPS,,
PNKMDC,,
PNKPKY,,
PNKBDJ,,
PNKBPN,,
PNKKOE,,
PNKKDI,,
PNKBIK,,
PNKDJJ,,
PNKTIM,,
PNKAMQ,,
PNKTTE,,
PNKPLW,,
PDGCGK,,
PDGBTG,,
PDGMES,,
PDGPKU,,
PDGBTH,,
PDGPLM,,
PDGPGK,,
PDGTKG,,
PDGDJB,,
PDGJOG,,
PDGSOC,,
PDGSRG,,
PDGSUB,,
PDGMLG,,
PDGDPS,,
PDGMDC,,
PDGPKY,,
PDGPNK,,
PDGBDJ,,
PDGBPN,,
PDGKOE,,
PDGKDI,,
PDGBIK,,
PDGDJJ,,
PDGTIM,,
PDGAMQ,,
PDGTTE,,
PDGPLW,,
DPSCGK,,
DPSBTG,,
DPSMES,,
DPSPKU,,
DPSBTH,,
DPSPDG,,
DPSPLM,,
DPSPGK,,
DPSTKG,,
DPSDJB,,
DPSJOG,,
DPSSOC,,
DPSSRG,,
DPSSUB,,
DPSMLG,,
DPSMDC,,
DPSPKY,,
DPSPNK,,
DPSBDJ,,
DPSBPN,,
DPSKOE,,
DPSKDI,,
DPSBIK,,
DPSDJJ,,
DPSTIM,,
DPSAMQ,,
DPSTTE,,
DPSPLW,,
AMQCGK,,
AMQBTG,,
AMQMES,,
AMQPKU,,
AMQBTH,,
AMQPDG,,
AMQPLM,,
AMQPGK,,
AMQTKG,,
AMQDJB,,
AMQJOG,,
AMQSOC,,
AMQSRG,,
AMQSUB,,
AMQMLG,,
AMQDPS,,
AMQMDC,,
AMQPKY,,
AMQPNK,,
AMQBDJ,,
AMQBNP,,
AMQKOE,,
AMQKDI,,
AMQBIK,,
AMQDJJ,,
AMQTIM,,
AMQTTE,,
AMQPLW,,
KDICGK,,
KDIBTG,,
KDIMES,,
KDIPKU,,
KDIBTH,,
KDIPDG,,
KDIPLM,,
KDIPGK,,
KDITKG,,
KDIDJB,,
KDIJOG,,
KDISOC,,
KDISRG,,
KDISUB,,
KDIMLG,,
KDIDPS,,
KDIMDC,,
KDIPKY,,
KDIPNK,,
KDIBDJ,,
KDIBNP,,
KDIKOE,,
KDIBIK,,
KDIDJJ,,
KDITIM,,
KDIAMQ,,
KDITTE,,
KDIPLW,,
PKUCGK,,
PKUBTG,,
PKUMES,,
PKUBTH,,
PKUPDG,,
PKUPLM,,
PKUPGK,,
PKUTKG,,
PKUDJB,,
PKUJOG,,
PKUSOC,,
PKUSRG,,
PKUSUB,,
PKUMLG,,
PKUDPS,,
PKUMDC,,
PKUPKY,,
PKUPNK,,
PKUBDJ,,
PKUBPN,,
PKUKOE,,
PKUKDI,,
PKUBIK,,
PKUDJJ,,
PKUTIM,,
PKUAMQ,,
PKUTTE,,
PKUPLW,,
SUBCGK,,
SUBBTG,,
SUBMES,,
SUBPKU,,
SUBBTH,,
SUBPDG,,
SUBPLM,,
SUBPGK,,
SUBTKG,,
SUBDJB,,
SUBJOG,,
SUBSOC,,
SUBSRG,,
SUBMLG,,
SUBDPS,,
SUBMDC,,
SUBPKY,,
SUBPNK,,
SUBBDJ,,
SUBBPN,,
SUBKOE,,
SUBKDI,,
SUBBIK,,
SUBDJJ,,
SUBTIM,,
SUBAMQ,,
SUBTTE,,
SUBPLW,,
DJJCGK,,
DJJBTG,,
DJJMES,,
DJJPKU,,
DJJBTH,,
DJJPDG,,
DJJPLM,,
DJJPGK,,
DJJTKG,,
DJJDJB,,
DJJJOG,,
DJJSOC,,
DJJSRG,,
DJJSUB,,
DJJMLG,,
DJJDPS,,
DJJMDC,,
DJJPKY,,
DJJPNK,,
DJJBDJ,,
DJJBNP,,
DJJKOE,,
DJJKDI,,
DJJBIK,,
DJJTIM,,
DJJAMQ,,
DJJTTE,,
DJJPLW,,
BNPCGK,,
BNPBTG,,
BNPMES,,
BNPPKU,,
BNPBTH,,
BNPPDG,,
BNPPLM,,
BNPPGK,,
BNPTKG,,
BNPDJB,,
BNPJOG,,
BNPSOC,,
BNPSRG,,
BNPSUB,,
BNPMLG,,
BNPDPS,,
BNPMDC,,
BNPPKY,,
BNPPNK,,
BNPBDJ,,
BNPKOE,,
BNPKDI,,
BNPBIK,,
BNPDJJ,,
BNPTIM,,
BNPAMQ,,
BNPTTE,,
BNPPLW,,
CGKBKK,,
BKKCGK,,
CGKHKG,,
HKGCGK,,
CGKKUL,,
KULCGK,,
CGKSIN,,
SINCGK,,
CGKHND,,
HNDCGK,,
CGKNKM,,
NKMCGK,,
CGKKIX,,
KIXCGK,,
CGKCAN,,
CANCGK,,
CGKPEK,,
PEKCGK,,
CGKSHA,,
SHACGK,,
CGKMEL,,
MELCGK,,
CGKSYD,,
SYDCGK,,
CGKPER,,
PERCGK,,
CGKJED,,
JEDCGK,,
CGKRUH,,
RUHCGK,,
CGKDMM,,
DMMCGK,,
CGKDUB,,
DUBCGK,,
CGKAMS,SUN,MON
AMSCGK,MON,SUN
PDGBKK,,
BKKPDG,,
PDGHKG,,
HKGPDG,,
PDGKUL,,
KULPDG,,
PDGSIN,,
SINPDG,,
PDGHND,,
HNDPDG,,
PDGNKM,,
NKMPDG,,
PDGKIX,,
KIXPDG,,
PDGCAN,,
CANPDG,,
PDGPEK,,
PEKPDG,,
PDGSHA,,
SHAPDG,,
PDGMEL,,
MELPDG,,
PDGSYD,,
SYDPDG,,
PDGPER,,
PERPDG,,
PDGJED,,
JEDPDG,,
PDGRUH,,
RUHPDG,,
PDGDMM,,
DMMPDG,,
PDGDUB,,
DUBPDG,,
PDGAMS,SUN,MON
AMSPDG,MON,SUN