{
    "languageCode": "en",
    "originDestination": [
        {
            "origin": {
                "date": "2015-04-25",
                "locationRef": {
                    "uri": "/geo/locations/A/JFK"
                }
            },
            "destination": {
                "locationRef": {
                    "uri": "/geo/locations/A/BOS"
                }
            }
        
        }
    ],
"travelerComposition" : [ {
	"count" : "1",
	"age": "25",
    "typeRef" : {
      "uri" : "/info/traveler-types/AIR/ADT"
    }
  } ],

    "pos": "JETBLUEWEB_US",
    "preferences": {
        
    }
}