{
"userSessionId" : "111",
  "languageCode" : "en",
  "itineraryPriceRQ" : {
    "price" : "false",
    "itineraryPriceRef" : [ {
      "uri" : "/air/lfs/5502ab76c4b9e0f1c21983bd/itinerary-prices/1"
    }, {
      "uri" : "/air/lfs/5502ab76c4b9e0f1c21983bd/itinerary-prices/55"
    } ]
  },
  "pos" : "JETBLUEWEB_US"
}