{
    "userSessionId": "AutoDummyValue",
	 "paymentDetails": [
        {
            "uri": "dummy",
            "id": "dummy",
            "customerRef": {
                "uri": "/reservations/A000004649autoTemp/customers/1"
            },
            "paymentFormRef": {
                "uri": "/fulfillment/methods/56c2e2f89b55379828ae8a63autoTemp/payment-forms/CREDITCARD"
            },
            "paymentCard": {
                "number": "372055555555550",
                "expiryDate": "2017-05-01",
                "holderName": "Lisa Simpson",
                "issuingCountry": "CA",
                "typeRef": {
                    "uri": "/fulfillment/methods/56c2e2f89b55379828ae8a63autoTemp/payment-forms/CREDITCARD/payment-card-types/AX"
                },
                "securityCode": "1234",
                "billingAddressRef": {
                    "uri": "/reservations/A000004649autoTemp/customers/1/addresses/1"
                },
				"email": {
					"uri": "paymentCard/emails/1",
					"address": "paul.zibert@datalex.com",
					"typeRef": {
					"uri":"/info/email-types/1.EAT"
					}
				},
				"phone": {
					"uri": "paymentCard/phones/1",
					"number": "123456789",
					"areaCode": "123",
					"typeRef": {
						"uri": "/info/phone-types/5.PUT"
					}
				},
				"emailRef": {
					"uri": "shouldGoHere"
				},
				"phoneRef": {
					"uri": "shouldGoHere"
				}
            }
        }
    ],
    "refund": [
        {
            "allocationRef": {
                "uri": "/fulfillment/methods/AutoDummyValue/refund-allocations/AutoDummyValue"
            },
            "option": [
                {
                    "allocationRef": {
                        "uri": "/fulfillment/methods/AutoDummyValue/refund-allocations/1/option-allocations/AutoDummyValue"
                    },
                    "value": {
                        "money": {
                            "amount": "AutoDummyValue",
                            "currency": "AutoDummyValue"
                        }
                    }
                }
            ]
        }
    ],
    "pos": "AutoDummyValue"
}