{
"userSessionId" : "11",
  "languageCode" : "en",
  "pay" : [{
    "type" : "CREDITCARD",
    "paymentCard" : {
      "billingAddressRef" : {
        "uri" : "/reservations/A000047026/customers/1/addresses/1"
      },
      "expiryDate" : "2017-05-01",
      "holderName" : "Lisa Simpson",
      "issuingCountry" : "CA",
      "number" : "4012000033330026",
      "securityCode" : "123",
      "typeRef" : {
        "uri" : "/info/payment-card-companies/VI"
      }
    },
    "customerRef" : {
      "uri" : "/reservations/A000047026/customers/1"
    },
    "itemAllocation" : [{
      "moneyValue" : {
        "amount" : "100",
        "currency" : "USD"
      },
      "itemRef" : {
        "uri" : "/reservations/A000047026/items/1"
      }
    }]
  }],
  "pos" : "JETBLUEWEB_US"
}