---------------------------------------------------------------------------------------------------------,MAIN TABS
---------------------------------------------------------------------------------------------------------,HEADER
bsHomeLink,xpath=//div[@class='layoutHeader']//div[@class='blockUnderLogo']//div[@class='navigationBreadcrumb']//a[contains(@href,'Start') or contains(@onclick,'Home')]
---------------------------------------------------------------------------------------------------------,LOGIN BLOCK ON HOME PAGE
---------------------------------------------------------------------------------------------------------,NAVIGATION HEADER
---------------------------------------------------------------------------------------------------------,HOME PAGE
linkLogin,a[onclick*='headerLoginForm']
linkLogoff,a[onclick*='logOut']
boxUserName,div.layoutHeader div.blockUnderLogo div.auth strong[title]
linkEnglish,xpath=//a[text()='English']
linkChildTravellersCOPA,xpath=//a[text()='Travelling with children?']
linkBusinessClassRadio,id=flightCabinClass1
---------------------------------------------------------------------------------------------------------,LOGIN FORM
---------------------------------------------------------------------------------------------------------,LOGGED IN HEADER
linkMyProfile,//a[href*='ProfileIndexPageForwardAction']
---------------------------------------------------------------------------------------------------------,CREATE NEW ACCOUNT
inputPassword,id=password
loginTitleError,xpath=//div[@class='formBlock formBlock1']//tr[contains(@class, 'errorNoticeOuter')][1]//div[@class='errorNotice']
loginFirstNameError,xpath=//div[@class='formBlock formBlock1']//tr[contains(@class, 'errorNoticeOuter')][2]//div[@class='errorNotice']
loginLastNameError,xpath=//div[@class='formBlock formBlock1']//tr[contains(@class, 'errorNoticeOuter')][4]//div[@class='errorNotice']
loginEmailError,xpath=//div[@class='formBlock formBlock1']//tr[contains(@class, 'errorNoticeOuter')][6]//div[@class='errorNotice']
loginConfirmEmailError,xpath=//div[@class='formBlock formBlock1']//tr[contains(@class, 'errorNoticeOuter')][7]//div[@class='errorNotice']
loginUsernameError,xpath=//div[@class='formBlock formBlock2']//tr[contains(@class, 'errorNoticeOuter')][1]//div[@class='errorNotice']
loginConfirmPasswordError,xpath=//div[@class='formBlock formBlock3']//tr[contains(@class, 'errorNoticeOuter')][2]//div[@class='errorNotice']
loginPasswordReminderError,xpath=//div[@class='formBlock formBlock3']//tr[contains(@class, 'errorNoticeOuter')][3]//div[@class='errorNotice']
loginTermsAndCondiationsError,xpath=//div[@class='formBlock formBlock5']//tr[contains(@class, 'errorNoticeOuter')][1]//div[@class='errorNotice']
---------------------------------------------------------------------------------------------------------,AIR SEARCH PAGE
inputADTQuantity,xpath=//input[@value='ADT']/../input[contains(@id,'amount')]
inputCNNQuantity,xpath=//input[@value='CNN']/../input[contains(@id,'amount')]
inputCHDQuantity,xpath=//input[@value='CHD']/../input[contains(@id,'amount')]
inputINFQuantity,xpath=//input[@value='INF']/../input[contains(@id,'amount')]
inputINSQuantity,xpath=//input[@value='INS']/../input[contains(@id,'amount')]
inputUNNQuantity,xpath=//input[@value='UNN']/../input[contains(@id,'amount')]
labelUNNPassenger,xpath=//input[@value='UNN']/../../../div[contains(@class,'passengerTypeSingle')]/p
------------------------------------------------------------------------------------------------------------,UNACCOMPANIED MINORS PAGE
------------------------------------------------------------------------------------------------------------,MULTICITY SEARCH
---------------------------------------------------------------------------------------------------------,AIR SEARCH PAGE PAL
------------------------------------------------------------------------------------------------------------,MULTICITY SEARCH PAL
---------------------------------------------------------------------------------------------------------,AIR SELECTION PAGE
--------------------------------------------------------------------------------------------------------------,SEATMAP VIEW FRONTIER
---------------------------------------------------------------------------------------------------------,FARE FAMILY SEARCH RESULT
---------------------------------------------------------------------------------------------------------,BY SCHEDULE SEARCH RESULT PAGE
---------------------------------------------------------------------------------------------------------,FULL FARE SEARCH RESULT PAGE
---------------------------------------------------------------------------------------------------------,AIR AVAILAIBLE CALENDAR SEARCH RESULT PAGE
---------------------------------------------------------------------------------------------------------,SUMMARY PAGE
checkboxLoungeOption,xpath=//div[contains(@class,'blockFlightAncillary')]//div/h2[text()='Lounge Option']/../../..//input[contains(@onclick,'selectAncillaryAirComponent')]
checkboxSMSOption,xpath=//div[contains(@class,'blockFlightAncillary')]//div/h2[text()='SMS Option']/../../..//input[contains(@onclick,'selectAncillaryAirComponent')]
-------------------------------------------------------------------------------------,TOTAL BLOCK ON SUMMARY
-------------------------------------------------------------------------------------------------------------------------,SUMMARY COPA
---------------------------------------------------------------------------------------------------------------,SUMMARY FRONTIER
-------------------------------------------------------------------------------------------------------------FARE RULES DETAILS
---------------------------------------------------------------------------------------------------------,LOGIN POPUP
---------------------------------------------------------------------------------------------------------,TRAVELER DETAILS PAGE
---------------------------------------------------------------------------------------------------------,FIRST TRAVELER
inputTravellerNationalIdNumber,id=travellersInfo[0].advancedPassengerDetails(nationalIdNumber)
selectTravellerNationalIdCountry,id=travellersInfo[0].advancedPassengerDetails(nationalIdCountry)
selectTravellerNationalIdExpDateDay,id=travellersInfo[0].advancedPassengerDetails(nationalIdExpireDay)
selectTravellerNationalIdExpDateMonth,id=travellersInfo[0].advancedPassengerDetails(nationalIdExpireMonth)
selectTravellerNationalIdExpDateYear,id=travellersInfo[0].advancedPassengerDetails(nationalIdExpireYear)
calendarTravellerDateOfBirth,xpath=//a[contains(@onclick,'travellersInfo[0].travellerBirthDate')]
-------------------------------------------------------------------,MANDATORY LABELS
firstNameMandatoryLabel,xpath=//input[@id='travellersInfo[0].firstName']/../../td[contains(.,'First Name') and contains(@class,'mandatoryElement')]
lastNameMandatoryLabel,xpath=//input[@id='travellersInfo[0].lastName']/../../td[contains(.,'Last Name') and contains(@class,'mandatoryElement')]
genderMandatoryLabel,xpath=//td[contains(.,'Gender') and contains(@class,'mandatoryElement')]
---------------------------------------------------------------------------------------------------------,SECOND TRAVELER
inputTravellerNationalIdNumber2,id=travellersInfo[1].advancedPassengerDetails(nationalIdNumber)
selectTravellerNationalIdCountry2,id=travellersInfo[1].advancedPassengerDetails(nationalIdCountry)
selectTravellerNationalIdExpDateDay2,id=travellersInfo[1].advancedPassengerDetails(nationalIdExpireDay)
selectTravellerNationalIdExpDateMonth2,id=travellersInfo[1].advancedPassengerDetails(nationalIdExpireMonth)
selectTravellerNationalIdExpDateYear2,id=travellersInfo[1].advancedPassengerDetails(nationalIdExpireYear)
calendarTravellerDateOfBirth2,xpath=//a[contains(@onclick,'travellersInfo[1].travellerBirthDate')]
---------------------------------------------------------------------------------------------------------,THIRD TRAVELER
inputTravellerNationalIdNumber3,id=travellersInfo[2].advancedPassengerDetails(nationalIdNumber)
selectTravellerNationalIdCountry3,id=travellersInfo[2].advancedPassengerDetails(nationalIdCountry)
selectTravellerNationalIdExpDateDay3,id=travellersInfo[2].advancedPassengerDetails(nationalIdExpireDay)
selectTravellerNationalIdExpDateMonth3,id=travellersInfo[2].advancedPassengerDetails(nationalIdExpireMonth)
selectTravellerNationalIdExpDateYear3,id=travellersInfo[2].advancedPassengerDetails(nationalIdExpireYear)
calendarTravellerDateOfBirth3,xpath=//a[contains(@onclick,'travellersInfo[2].travellerBirthDate')]
---------------------------------------------------------------------------------------------------------,TRAVELER 4
inputTravellerNationalIdNumber4,id=travellersInfo[3].advancedPassengerDetails(nationalIdNumber)
selectTravellerNationalIdCountry4,id=travellersInfo[3].advancedPassengerDetails(nationalIdCountry)
selectTravellerNationalIdExpDateDay4,id=travellersInfo[3].advancedPassengerDetails(nationalIdExpireDay)
selectTravellerNationalIdExpDateMonth4,id=travellersInfo[3].advancedPassengerDetails(nationalIdExpireMonth)
selectTravellerNationalIdExpDateYear4,id=travellersInfo[3].advancedPassengerDetails(nationalIdExpireYear)
calendarTravellerDateOfBirth4,xpath=//a[contains(@onclick,'travellersInfo[3].travellerBirthDate')]
radioTravellerGenderMale4,xpath=//*[@id="travellersInfo[3].genderMale"]
---------------------------------------------------------------------------------------------------------,TRAVELER 5
inputTravellerNationalIdNumber5,id=travellersInfo[4].advancedPassengerDetails(nationalIdNumber)
selectTravellerNationalIdCountry5,id=travellersInfo[4].advancedPassengerDetails(nationalIdCountry)
selectTravellerNationalIdExpDateDay5,id=travellersInfo[4].advancedPassengerDetails(nationalIdExpireDay)
selectTravellerNationalIdExpDateMonth5,id=travellersInfo[4].advancedPassengerDetails(nationalIdExpireMonth)
selectTravellerNationalIdExpDateYear5,id=travellersInfo[4].advancedPassengerDetails(nationalIdExpireYear)
calendarTravellerDateOfBirth5,xpath=//a[contains(@onclick,'travellersInfo[4].travellerBirthDate')]
radioTravellerGenderMale5,xpath=//*[@id="travellersInfo[4].genderMale"]
---------------------------------------------------------------------------------------------------------,TRAVELER 6
inputTravellerNationalIdNumber6,id=travellersInfo[5].advancedPassengerDetails(nationalIdNumber)
selectTravellerNationalIdCountry6,id=travellersInfo[5].advancedPassengerDetails(nationalIdCountry)
selectTravellerNationalIdExpDateDay6,id=travellersInfo[5].advancedPassengerDetails(nationalIdExpireDay)
selectTravellerNationalIdExpDateMonth6,id=travellersInfo[5].advancedPassengerDetails(nationalIdExpireMonth)
selectTravellerNationalIdExpDateYear6,id=travellersInfo[5].advancedPassengerDetails(nationalIdExpireYear)
calendarTravellerDateOfBirth6,xpath=//a[contains(@onclick,'travellersInfo[5].travellerBirthDate')]
radioTravellerGenderMale6,xpath=//*[@id="travellersInfo[5].genderMale"]
selectTravellerFrequentFlyerProgram5,id=travellersInfo[5].loyaltyMembership
---------------------------------------------------------------------------------------------------------,TRAVELER 7
selectTravellerProfileId7,id=travellersInfo[6].profileId
selectTravellerType7,id=travellersInfo[6].travellerType
selectTravellerTitle7,id=travellersInfo[6].title
inputTravellerFirstName7,id=travellersInfo[6].firstName
inputTravellerLastName7,id=travellersInfo[6].lastName
inputTravellerMiddleName7,id=travellersInfo[6].middleName
selectTravellerSuffix7,id=travellersInfo[6].suffix
selectTravellerCitizenship7,id=travellersInfo[6].citizenCountry
inputTravellerPassportNumber7,id=travellersInfo[6].advancedPassengerDetails(passportNumber)
selectTravellerPassportCountry7,id=travellersInfo[6].advancedPassengerDetails(passportCountry)
selectTravellerPassportExpDateDay7,id=travellersInfo[6].advancedPassengerDetails(passportExpireDay)
selectTravellerPassportExpDateMonth7,id=travellersInfo[6].advancedPassengerDetails(passportExpireMonth)
selectTravellerPassportExpDateYear7,id=travellersInfo[6].advancedPassengerDetails(passportExpireYear)
inputTravellerNationalIdNumber7,id=travellersInfo[6].advancedPassengerDetails(nationalIdNumber)
selectTravellerNationalIdCountry7,id=travellersInfo[6].advancedPassengerDetails(nationalIdCountry)
selectTravellerNationalIdExpDateDay7,id=travellersInfo[6].advancedPassengerDetails(nationalIdExpireDay)
selectTravellerNationalIdExpDateMonth7,id=travellersInfo[6].advancedPassengerDetails(nationalIdExpireMonth)
selectTravellerNationalIdExpDateYear7,id=travellersInfo[6].advancedPassengerDetails(nationalIdExpireYear)
calendarTravellerDateOfBirth7,xpath=//a[contains(@onclick,'travellersInfo[6].travellerBirthDate')]
selectTravellerDateOfBirthDay7,xpath=//select[@id='travellersInfo[6].travellerBirthDay']
selectTravellerDateOfBirthMonth7,id=travellersInfo[6].travellerBirthMonth
selectTravellerDateOfBirthYear7,id=travellersInfo[6].travellerBirthYear
selectTravellerAPDDateOfBirthDay7,select[id='travellersInfo[6].advancedPassengerDetails(dobDay)']
selectTravellerAPDDateOfBirthMonth7,select[id='travellersInfo[6].advancedPassengerDetails(dobMonth)']
selectTravellerAPDDateOfBirthYear7,select[id='travellersInfo[6].advancedPassengerDetails(dobYear)']
selectTravellerAge7,select[id='travellersInfo[6].travellerAge']
radioTravellerGenderMale7,xpath=//*[@id="travellersInfo[6].genderMale"]
selectTravellerFrequentFlyerProgram5,id=travellersInfo[6].loyaltyMembership
---------------------------------------------------------------------------------------------------------,TRAVELER 8
selectTravellerProfileId8,id=travellersInfo[7].profileId
selectTravellerType8,id=travellersInfo[7].travellerType
selectTravellerTitle8,id=travellersInfo[7].title
inputTravellerFirstName8,id=travellersInfo[7].firstName
inputTravellerLastName8,id=travellersInfo[7].lastName
inputTravellerMiddleName8,id=travellersInfo[7].middleName
selectTravellerSuffix8,id=travellersInfo[7].suffix
selectTravellerCitizenship8,id=travellersInfo[7].citizenCountry
inputTravellerPassportNumber8,id=travellersInfo[7].advancedPassengerDetails(passportNumber)
selectTravellerPassportCountry8,id=travellersInfo[7].advancedPassengerDetails(passportCountry)
selectTravellerPassportExpDateDay8,id=travellersInfo[7].advancedPassengerDetails(passportExpireDay)
selectTravellerPassportExpDateMonth8,id=travellersInfo[7].advancedPassengerDetails(passportExpireMonth)
selectTravellerPassportExpDateYear8,id=travellersInfo[7].advancedPassengerDetails(passportExpireYear)
inputTravellerNationalIdNumber8,id=travellersInfo[7].advancedPassengerDetails(nationalIdNumber)
selectTravellerNationalIdCountry8,id=travellersInfo[7].advancedPassengerDetails(nationalIdCountry)
selectTravellerNationalIdExpDateDay8,id=travellersInfo[7].advancedPassengerDetails(nationalIdExpireDay)
selectTravellerNationalIdExpDateMonth8,id=travellersInfo[7].advancedPassengerDetails(nationalIdExpireMonth)
selectTravellerNationalIdExpDateYear8,id=travellersInfo[7].advancedPassengerDetails(nationalIdExpireYear)
calendarTravellerDateOfBirth8,xpath=//a[contains(@onclick,'travellersInfo[7].travellerBirthDate')]
selectTravellerDateOfBirthDay8,xpath=//select[@id='travellersInfo[7].travellerBirthDay']
selectTravellerDateOfBirthMonth8,id=travellersInfo[7].travellerBirthMonth
selectTravellerDateOfBirthYear8,id=travellersInfo[7].travellerBirthYear
selectTravellerAPDDateOfBirthDay8,select[id='travellersInfo[7].advancedPassengerDetails(dobDay)']
selectTravellerAPDDateOfBirthMonth8,select[id='travellersInfo[7].advancedPassengerDetails(dobMonth)']
selectTravellerAPDDateOfBirthYear8,select[id='travellersInfo[7].advancedPassengerDetails(dobYear)']
selectTravellerAge8,select[id='travellersInfo[7].travellerAge']
radioTravellerGenderMale8,xpath=//*[@id="travellersInfo[7].genderMale"]
selectTravellerFrequentFlyerProgram5,id=travellersInfo[7].loyaltyMembership
---------------------------------------------------------------------------------------------------------,TRAVELER 9
selectTravellerProfileId9,id=travellersInfo[8].profileId
selectTravellerType9,id=travellersInfo[8].travellerType
selectTravellerTitle9,id=travellersInfo[8].title
inputTravellerFirstName9,id=travellersInfo[8].firstName
inputTravellerLastName9,id=travellersInfo[8].lastName
inputTravellerMiddleName9,id=travellersInfo[8].middleName
selectTravellerSuffix9,id=travellersInfo[8].suffix
selectTravellerCitizenship9,id=travellersInfo[8].citizenCountry
inputTravellerPassportNumber9,id=travellersInfo[8].advancedPassengerDetails(passportNumber)
selectTravellerPassportCountry9,id=travellersInfo[8].advancedPassengerDetails(passportCountry)
selectTravellerPassportExpDateDay9,id=travellersInfo[8].advancedPassengerDetails(passportExpireDay)
selectTravellerPassportExpDateMonth9,id=travellersInfo[8].advancedPassengerDetails(passportExpireMonth)
selectTravellerPassportExpDateYear9,id=travellersInfo[8].advancedPassengerDetails(passportExpireYear)
inputTravellerNationalIdNumber9,id=travellersInfo[8].advancedPassengerDetails(nationalIdNumber)
selectTravellerNationalIdCountry9,id=travellersInfo[8].advancedPassengerDetails(nationalIdCountry)
selectTravellerNationalIdExpDateDay9,id=travellersInfo[8].advancedPassengerDetails(nationalIdExpireDay)
selectTravellerNationalIdExpDateMonth9,id=travellersInfo[8].advancedPassengerDetails(nationalIdExpireMonth)
selectTravellerNationalIdExpDateYear9,id=travellersInfo[8].advancedPassengerDetails(nationalIdExpireYear)
calendarTravellerDateOfBirth9,xpath=//a[contains(@onclick,'travellersInfo[8].travellerBirthDate')]
selectTravellerDateOfBirthDay9,xpath=//select[@id='travellersInfo[8].travellerBirthDay']
selectTravellerDateOfBirthMonth9,id=travellersInfo[8].travellerBirthMonth
selectTravellerDateOfBirthYear9,id=travellersInfo[8].travellerBirthYear
selectTravellerAPDDateOfBirthDay9,select[id='travellersInfo[8].advancedPassengerDetails(dobDay)']
selectTravellerAPDDateOfBirthMonth9,select[id='travellersInfo[8].advancedPassengerDetails(dobMonth)']
selectTravellerAPDDateOfBirthYear9,select[id='travellersInfo[8].advancedPassengerDetails(dobYear)']
selectTravellerAge9,select[id='travellersInfo[8].travellerAge']
radioTravellerGenderMale9,xpath=//*[@id="travellersInfo[8].genderMale"]
selectTravellerFrequentFlyerProgram5,id=travellersInfo[8].loyaltyMembership
---------------------------------------------------------------------------------------------------------,TRAVELERS CONTACT INFO
---------------------------------------------------------------------------------------------------------,SITA SMALL CARRIERS
inputTravellerMobilePhoneAreaSITASM,id=travellersInfo[0].homePhone.phoneNumberAreaCode
inputTravellerMobilePhoneSITASM,id=travellersInfo[0].homePhone.phoneNumber
--------------------------------------------------,MANDATORY
arrangerFirstNameMandatoryLabel,xpath=//input[@id='travelArranger.firstName']/../../td[contains(.,'First Name') and contains(@class,'mandatoryElement')]
arrangerLastNameMandatoryLabel,xpath=//input[@id='travelArranger.lastName']/../../td[contains(.,'Last Name') and contains(@class,'mandatoryElement')]
emailMandatoryLabel,xpath=//input[@id='emailAddress']/../../td[contains(.,'Email') and contains(@class,'mandatoryElement')]
confirmEmailMandatoryLabel,xpath=//input[@id='confirmEmail']/../../td[contains(.,'Confirm') and contains(@class,'mandatoryElement')]
----------------------------------------------------------------------------------------------------------,ADULT PERSONAL DETAILS
----------------------------------------------------------------------------------------------------------,SEATS
------------------------------------------------------------------------------------------------------------,SEATS FRONTIER
---------------------------------------------------------------------------------------------------------,PAYMENT PAGE
---------------------------------------------------------------------------------------------------------,PAYMENT PAGE 3D SECURE
inputPasswordSecure3d,xpath=/html/body/center/form/table/tbody/tr[7]/td[2]/input
goButtonSecure3d,xpath=/html/body/center/form/table/tbody/tr[8]/td/input
backButtonSecure3d,xpath=/html/body/center/form/table/tbody/tr[8]/td/input
-----------------------------------------------------------------------------------------------------------,PAYMENT PAGE WITH APPLIED THIRD-SITE PM
---------------------------------------------------------------------------------------------------------,BARCLAY CARD
---------------------------------------------------------------------------------------------------------,CREDIT CARD
inputPaymentCardNumberNonDisplay,xpath=//*[@id="creditCard.number:creditCard.numberDisplay"]
---------------------------------------------------------------------------------------------------------,GIFT CARD
---------------------------------------------------------------------------------------------------------,BML block
logoBML,xpath=//td[@class='colCheck']//input[contains(@id, 'BILLMELATER')]/../../../td[@class='colLogo']/div
linkWhatIsBillMeLater,xpath=//td[@class='colCheck']//input[contains(@id, 'BILLMELATER')]/../../../td[@class='colDescr']//a
---------------------------------------------------------------------------------------------------------,PSE
checkPaymentPSE,xpath=//input[contains(@id,'PAGOSPSE')]
---------------------------------------------------------------------------------------------------------,WESTERN UNION
checkPaymentWSUN,xpath=//*[@id="formOfPayment(WESTERNUNION).selected"]
inputWSUNAddress1,xpath=//*[@id="formOfPayment(WESTERNUNION).billingAddress.addressLine1"]
inputWSUNCity,xpath=//*[@id="formOfPayment(WESTERNUNION).billingAddress.city"]
inputWSUNCountry,xpath=//*[@id="formOfPayment(WESTERNUNION).billingAddress.country"]
inputWSUNPhCode,xpath=//*[@id="formOfPayment(WESTERNUNION).billingAddress.phoneCountryCode"]
inputWSUNPhNumber,xpath=//*[@id="formOfPayment(WESTERNUNION).billingAddress.phone"]
buttonGoBack,xpath=//*[@id="btnGoBack"]
---------------------------------------------------------------------------------------------------------,COPA PAYMENT PAGE
selectCustomerType,id=pagosPSE.customerType
selectBankPSE,xpath=//*[@id="pagosPSE.bankId"]
selectCreditCardCountry,xpath=//*[@id="creditCard.issuingCountrySelect"]
selectCreditCardCurrency,xpath=//*[@id="creditCard.currencySelect"]
---------------------------------------------------------------------------------------------------------,PAL PAYMENTS
----------------------------------------------------------------------------------------------------------,AIRCHINA PAYMENTS PAGE
selectBank,select[id='creditCard.bankId']
---------------------------------------------------------------------------------------------------------,HEADER OF THE PAGE
linkMyProfile,a[href*='ProfileIndexPageForwardAction']
---------------------------------------------------------------------------------------------------------,ERROR BLOCK
---------------------------------------------------------------------------------------------------------,HOTEL SEARCH PAGE
---------------------------------------------------------------------------------------------------------,HOTEL SEARCH RESULT
---------------------------------------------------------------------------------------------------------,INSURANCE SEARCH PAGE
---------------------------------------------------------------------------------------------------------,CAR SEARCH PAGE
---------------------------------------------------------------------------------------------------------,CAR SEARCH RESULT
----------------------------------------------------------------------------------------------------------,POPUPs FLIGHT DETAILS
----------------------------------------------------------------------------------------------------------,BILL ME LATER PAGE
-----------------------------------------------------------------------------------------------------------,BARCLAY CARD ADVERT PAGE
----------------------------------------------------------------------------------------------------------,BARCLAY CARD APPLICATION PAGE
currentStepLabel,xpath=//div[@id='steps']//img[contains(@src,'current_step')]/../../div[@class='steplabel']
applicationStepCompleteIcon,xpath=//div[@id='steps']//img[contains(@src,'complete_step')]/../../div[@class='steplabel'][text()='Application']
confirmationStepCompleteIcon,xpath=//div[@id='steps']//img[contains(@src,'complete_step')]/../../div[@class='steplabel'][text()='Confirmation']
----------------------------------------------------------------------------------------------,ADDRESS
-----------------------------------------------------------------------------------------------,PHONES AND SSN
------------------------------------------------------------------------------------------------,DATE OF BIRTH
------------------------------------------------------------------------------------------------,OTHER INFO
-------------------------------------------------------------------------------------------------,QUESTIONS RBs
---------------------------------------------------------------------------------------------------,BUTTONS
----------------------------------------------------------------------------------------------------------,BARCLAY CARD CONFIRMATION PAGE
----------------------------------------------------------------------------------------------------------,BARCLAY CARD DECISION PAGE
----------------------------------------------------------------------------------------------------------,CONFIRMATION PAGE
linkMyTrips,xpath=//a[contains(text(),'My Trips')]
-------------------------------------------------------------------------------------,TRIP STATUS BLOCK
-------------------------------------------------------------------------------------,PASS INFO AND OTHER INFO
.groupLastgroupEven
airMilesNumber,xpath=//div[contains(@class,'authDetails')]
--------------------------------------------------------------------------------------,CHANGE ITINERARY
inputChangeTo,xpath=//*[@id="originDestinationOptions[0].destinationLocationName"]
ChangeNextBtn,xpath=//span[text()='Next >']
-------------------------------------------------------------------------------------,TOTAL PRICE
-------------------------------------------------------------------------------------,CONF EMAIL
-------------------------------------------------------------------------------------,DELIVERY BLOCK
-------------------------------------------------------------------------------------,OTHER
----------------------------------------------------------------------------------------------------------,MY BOOKINGS
----------------------------------------------------------------------------------------------------------,CROSS SELLS SECTION
----------------------------------------------------------------------------------------------------------,CAR CROSSSELLS
----------------------------------------------------------------------------------------------------------,INSURANCE CROSSSELLS
----------------------------------------------------------------------------------------------------------,HOTEL CROSSELLS
----------------------------------------------------------------------------------------------------------,FARE BREAK DOWN POPUP
-----------------------------------------------------------------------------------------------------------,TAXES POPUP
-----------------------------------------------------------------------------------------------------------,SURCHADGES POPUP
-----------------------------------------------------------------------------------------------------------,CALENDAR POPUP
-----------------------------------------------------------------------------------------------------------,MUI
------------------------------------------------------------------------------------------------------------,MUI CALENDAR SEARCH
------------------------------------------------------------------------------------------------------------,MUI CALENDAR
-------------------------------------------------------------------------------------------------------------,RELOAD POS
-------------------------------------------------------------------------------------------------------------,BRE
breManagementWindow,xpath=//h2[contains(.,'Business') or contains(.,'BUSINESS')]
deploymentPage,xpath=//div[@id ='leftandmiddleandright']//td[contains(., 'Deployment')][1]
airServicesLinkOnLeftMenu,xpath=//a[contains(.,'Air Services')]
--------------------------------------------------------------------------------------------------------------,RULE PAGE
---------------------------------------------------------------------------------------------------------------,DEPLOYPMENT PAGE
---------------------------------------------------------------------------------------------------------------,FARE BREAK DOWN SECTION
---------------------------------------------------------------------------------------------------------------,MY CART
---------------------------------------------------------------------------------------------------------------,GMAIL
theLastReservationConfirmationLetter,xpath=//tbody/tr//div[contains(.,'Reservation Confirmation')]
--------------------------------------------------------------------------------------------------------------,FRONTIER RESERVATION EMAIL
frontierLogo,xpath=//div[contains(@title,' Back to Inbox')][@role='button']/../../../../../../table//div//img[@src='http://www.frontierairlines.com/frontier/images/frontier-logo.jpg']
pnrNumberInEmail,xpath=//td[contains(.,'Reservation Code')]/../tr[2]
--------------------------------------------------------------------------------------------------------------,FOOTER COPA
---------------------------------------------------------------------,MAIN
---------------------------------------------------------------------,ABOUT
---------------------------------------------------------------------,THE THIRD ROW IN FOOTER
----------------------------------------------------------------------,POLICY
----------------------------------------------------------------------,TRAVELNOW CANCELLATION
cancellationCancellReservation,xpath=//a[contains(@href,'cancelReservation&confirmationID')]
----------------------------------------------------------------------,APT
