---------------------------------------------------------------------------------------------------------,GLOBAL CLASS LOCATERS
--------THESE GLOBAL LOCATORS ARE NOT TO BE CHANGED UNLESS NECESSARY-------------------------------------,--------------------------------------------------
-------------------------!!AirSearchBlock.java!!---------------------------------------------------------,LOCBLOCK AIRSEARCH CSS LOCATERS ONLY!
airSearchBlock,div[class='searchBlock mainSearchBlock airMainSearchBlock airAdvancedSearchBlock packageMainSearchBlock']
---------------------------------------------------------------------------------------------------------,END OF GLOBAL LOCATERS
---------------------------------------------------------------------------------------------------------,---------------------------------------------------------------------------------------------------------
---------------------------------------------------------------------------------------------------------,---------------------------------------------------------------------------------------------------------
---------------------------------------------------------------------------------------------------------,START OF FORM AND UI ELEMENT CONTROLS
---------------------------------------------------------------------------------------------------------,MAIN TABS
---------------------------------------------------------------------------------------------------------,HEADER
bsHomeLink,xpath=//div[@class='layoutHeader']//div[@class='blockUnderLogo']//div[@class='navigationBreadcrumb']//a[contains(@href,'Start') or contains(@onclick,'Home')]
---------------------------------------------------------------------------------------------------------,HOME PAGE
linkLogin,a[onclick*='headerLoginForm']
linkLogoff,a[onclick*='logOut']
boxUserName,div.layoutHeader div.blockUnderLogo div.auth strong[title]
---------------------------------------------------------------------------------------------------------,LOGIN FORM
---------------------------------------------------------------------------------------------------------,LOGGED IN HEADER
linkMyProfile,//a[href*='ProfileIndexPageForwardAction']
---------------------------------------------------------------------------------------------------------,CREATE NEW ACCOUNT
inputPassword,id=password
loginTitleError,xpath=//div[@class='formBlock formBlock1']//tr[contains(@class, 'errorNoticeOuter')][1]//div[@class='errorNotice']
loginFirstNameError,xpath=//div[@class='formBlock formBlock1']//tr[contains(@class, 'errorNoticeOuter')][2]//div[@class='errorNotice']
loginLastNameError,xpath=//div[@class='formBlock formBlock1']//tr[contains(@class, 'errorNoticeOuter')][4]//div[@class='errorNotice']
loginEmailError,xpath=//div[@class='formBlock formBlock1']//tr[contains(@class, 'errorNoticeOuter')][6]//div[@class='errorNotice']
loginConfirmEmailError,xpath=//div[@class='formBlock formBlock1']//tr[contains(@class, 'errorNoticeOuter')][7]//div[@class='errorNotice']
loginUsernameError,xpath=//div[@class='formBlock formBlock2']//tr[contains(@class, 'errorNoticeOuter')][1]//div[@class='errorNotice']
loginConfirmPasswordError,xpath=//div[@class='formBlock formBlock3']//tr[contains(@class, 'errorNoticeOuter')][2]//div[@class='errorNotice']
loginPasswordReminderError,xpath=//div[@class='formBlock formBlock3']//tr[contains(@class, 'errorNoticeOuter')][3]//div[@class='errorNotice']
loginTermsAndCondiationsError,xpath=//div[@class='formBlock formBlock5']//tr[contains(@class, 'errorNoticeOuter')][1]//div[@class='errorNotice']
---------------------------------------------------------------------------------------------------------,AIR SEARCH PAGE
inputADTQuantity,xpath=//input[@value='ADT']/../input[contains(@id,'amount')]
inputCNNQuantity,xpath=//input[@value='CNN']/../input[contains(@id,'amount')]
inputCHDQuantity,xpath=//input[@value='CHD']/../input[contains(@id,'amount')]
inputINFQuantity,xpath=//input[@value='INF']/../input[contains(@id,'amount')]
inputINSQuantity,xpath=//input[@value='INS']/../input[contains(@id,'amount')]
inputUNNQuantity,xpath=//input[@value='UNN']/../input[contains(@id,'amount')]
labelUNNPassenger,xpath=//input[@value='UNN']/../../../div[contains(@class,'passengerTypeSingle')]/p
buttonSearchPAL,xpath=//span[contains(text(),'Search')]
---------------------------------------------------------------------------------------------------------,AIR SELECTION PAGE
insuranceCheckBox,id=insurancePurchaseMerch
---------------------------------------------------------------------------------------------------------,SUMMARY PAGE
checkboxLoungeOption,xpath=//div[contains(@class,'blockFlightAncillary')]//div/h2[text()='Lounge Option']/../../..//input[contains(@onclick,'selectAncillaryAirComponent')]
checkboxSMSOption,xpath=//div[contains(@class,'blockFlightAncillary')]//div/h2[text()='SMS Option']/../../..//input[contains(@onclick,'selectAncillaryAirComponent')]
-------------------------------------------------------------------------------------,TOTAL BLOCK ON SUMMARY
---------------------------------------------------------------------------------------------------------,TRAVELER DETAILS PAGE
---------------------------------------------------------------------------------------------------------,FIRST TRAVELER
calendarTravellerDateOfBirth,xpath=//a[contains(@onclick,'travellersInfo[0].travellerBirthDate')]
calendarTravellerAPDDateOfBirth,xpath=//a[contains(@onclick,'travellersInfo[0].advancedPassengerDetails(dobDate)')]
calendarTravellerAPDDateOfBirthJBU,xpath=//a[contains(@onclick,'travellersInfo[0].travellerBirthDate')]
inputTravellerAPDDateOfBirthDay,input[id='travellersInfo[0].advancedPassengerDetails(dobDay)']
inputTravellerAPDDateOfBirthMonth,input[id='travellersInfo[0].advancedPassengerDetails(dobMonth)']
inputTravellerAPDDateOfBirthYear,input[id='travellersInfo[0].advancedPassengerDetails(dobYear)']
-------------------------------------------------------------------,MANDATORY LABELS
firstNameMandatoryLabel,xpath=//input[@id='travellersInfo[0].firstName']/../../td[contains(.,'First Name') and contains(@class,'mandatoryElement')]
lastNameMandatoryLabel,xpath=//input[@id='travellersInfo[0].lastName']/../../td[contains(.,'Last Name') and contains(@class,'mandatoryElement')]
genderMandatoryLabel,xpath=//td[contains(.,'Gender') and contains(@class,'mandatoryElement')]
---------------------------------------------------------------------------------------------------------,SECOND TRAVELER
calendarTravellerDateOfBirth2,xpath=//a[contains(@onclick,'travellersInfo[1].travellerBirthDate')]
---------------------------------------------------------------------------------------------------------,THIRD TRAVELER
calendarTravellerDateOfBirth3,xpath=//a[contains(@onclick,'travellersInfo[2].travellerBirthDate')]
selectTravellerDateOfBirthYear3,xpath=//select[@id='travellersInfo[2].travellerBirthYear']
---------------------------------------------------------------------------------------------------------,TRAVELER 4
calendarTravellerDateOfBirth4,xpath=//a[contains(@onclick,'travellersInfo[3].travellerBirthDate')]
---------------------------------------------------------------------------------------------------------,TRAVELER 5
calendarTravellerDateOfBirth5,xpath=//a[contains(@onclick,'travellersInfo[4].travellerBirthDate')]
---------------------------------------------------------------------------------------------------------,TRAVELER 6
selectTravellerFrequentFlyerProgram5,id=travellersInfo[5].loyaltyMembership
---------------------------------------------------------------------------------------------------------,TRAVELERS CONTACT INFO
inputTravellerEveningContactAreaCode,id=travellersInfo[0].homePhone.phoneNumberAreaCode
inputTravellerEveningContactNumber,id=travellersInfo[0].homePhone.phoneNumber
inputTravellerEmergencyContactAreaCode,id=travellersInfo[0].emergencyContactPhone.phoneNumberCountryCode
inputTravellerEmergencyContactNumber,id=travellersInfo[0].emergencyContactPhone.phoneNumber
inputTravellerMobilePhoneAreaNew,id=travellersInfo[0].mobilePhone.phoneNumberCountryCode
inputTravellerMobilePhoneAreaBEL,id=mobilePhoneNumberCountryCode
inputTravellerMobilePhoneNew,id=travellersInfo[0].mobilePhone.phoneNumber
--------------------------------------------------,MANDATORY
arrangerFirstNameMandatoryLabel,xpath=//input[@id='travelArranger.firstName']/../../td[contains(.,'First Name') and contains(@class,'mandatoryElement')]
arrangerLastNameMandatoryLabel,xpath=//input[@id='travelArranger.lastName']/../../td[contains(.,'Last Name') and contains(@class,'mandatoryElement')]
emailMandatoryLabel,xpath=//input[@id='emailAddress']/../../td[contains(.,'Email') and contains(@class,'mandatoryElement')]
confirmEmailMandatoryLabel,xpath=//input[@id='confirmEmail']/../../td[contains(.,'Confirm') and contains(@class,'mandatoryElement')]
----------------------------------------------------------------------------------------------------------,ADULT PERSONAL DETAILS
----------------------------------------------------------------------------------------------------------,SEATS SELECT PAGE
routeOneSeats,xpath=//a[@id='idViewSegmentLink_0']
routeTwoSeats,xpath=//a[@id='idViewSegmentLink_1']
routeThreeSeats,xpath=//a[@id='idViewSegmentLink_2']
routeFourSeats,xpath=//a[@id='idViewSegmentLink_3']
clickOnAnyAvailableSeat,xpath=//div[contains(@onclick,'seatMapFramework.clickOnSeat')]
buttonSeatSelect,xpath=//a[@id='pgButtonSeats']
---------------------------------------------------------------------------------------------------------,PAYMENT PAGE
---------------------------------------------------------------------------------------------------------,CREDIT CARD
checkPaymentCreditCard,input[id*='CREDITCARDPASSTHROUGH'][type='checkbox']
checkPaymentCreditCardPOS,xpath=//input[contains(@id,'CREDITCARD') and @type='checkbox']
checkPaymentCreditCardMAS,xpath=//input[contains(@id,'CREDITCARD') and @type='checkbox']
selectPaymentCardTypePOS,xpath=//select[@id='creditCardPOS.type' or @id='creditCard.type']
selectPaymentCardTypeMultiplePOS,xpath=//div[@class='multiplePaymentItem multiplePaymentItem-CC']//td[@class='colLogo']//label[contains(text(),'Credit Card')]/../../..//input[contains(@id,'formOfPayment') and @type='checkbox']
inputPaymentSecurityCodePOS,xpath=//input[@id='creditCardPOS.securityCode' or @id='creditCard.securityCode']
---------------------------------------------------------------------------------------------------------,CREDIT CARD FOR MULTIPAYMENT
selectPaymentCardTypeMultiple,xpath=//div[@class='multiplePaymentItem multiplePaymentItem-CC']//td[@class='colLogo']//label[contains(text(),'Credit Card')]/../../../../../../..//select[contains(@id,'creditCard') and contains(@onchange,'updateCreditCard')]
inputPaymentCardNumberMultiple,xpath=//div[@class='multiplePaymentItem multiplePaymentItem-CC']//td[@class='colLogo']//label[contains(text(),'Credit Card')]/../../../../../../..//input[contains(@id,'numberDisplay') and contains(@onchange,'creditCard')]
inputPaymentCardNumberNonDisplayMultiple,xpath=//div[@class='multiplePaymentItem multiplePaymentItem-CC']//td[@class='colLogo']//label[contains(text(),'Credit Card')]/../../../../../../..//input[contains(@id,'numberDisplay') and @type='hidden']
selectPaymentCardExpDateMonthMultiple,xpath=//div[@class='multiplePaymentItem multiplePaymentItem-CC']//td[@class='colLogo']//label[contains(text(),'Credit Card')]/../../../../../../..//select[contains(@id,'expirationMonth')]
selectPaymentCardExpDateYearMultiple,xpath=//div[@class='multiplePaymentItem multiplePaymentItem-CC']//td[@class='colLogo']//label[contains(text(),'Credit Card')]/../../../../../../..//select[contains(@id,'expirationYear')]
inputPaymentSecurityCodeMultiple,xpath=//div[@class='multiplePaymentItem multiplePaymentItem-CC']//td[@class='colLogo']//label[contains(text(),'Credit Card')]/../../../../../../..//input[contains(@id,'securityCode')]
inputPaymentCardHolderNameMultiple,xpath=//div[@class='multiplePaymentItem multiplePaymentItem-CC']//td[@class='colLogo']//label[contains(text(),'Credit Card')]/../../../../../../..//input[contains(@id,'cardHolderName')]
selectPaymentCountryMultiple,xpath=//div[@class='multiplePaymentItem multiplePaymentItem-CC']//td[@class='colLogo']//label[contains(text(),'Credit Card')]/../../../../../../..//select[contains(@id,'country')]
inputPaymentAdress1Multiple,xpath=//div[@class='multiplePaymentItem multiplePaymentItem-CC']//td[@class='colLogo']//label[contains(text(),'Credit Card')]/../../../../../../..//input[contains(@id,'addressLine1')]
inputPaymentCityMultiple,xpath=//div[@class='multiplePaymentItem multiplePaymentItem-CC']//td[@class='colLogo']//label[contains(text(),'Credit Card')]/../../../../../../..//input[contains(@id,'city')]
---------------------------------------------------------------------------------------------------------,GIFT CARD
---------------------------------------------------------------------------------------------------------,BML block
logoBML,xpath=//td[@class='colCheck']//input[contains(@id, 'BILLMELATER')]/../../../td[@class='colLogo']/div
linkWhatIsBillMeLater,xpath=//td[@class='colCheck']//input[contains(@id, 'BILLMELATER')]/../../../td[@class='colDescr']//a
---------------------------------------------------------------------------------------------------------,PSE
checkPaymentPSE,xpath=//input[contains(@id,'PAGOSPSE')]
---------------------------------------------------------------------------------------------------------,HEADER OF THE PAGE
linkMyProfile,a[href*='ProfileIndexPageForwardAction']
----------------------------------------------------------------------------------------------------------,CONFIRMATION PAGE
linkMyTrips,xpath=//a[contains(text(),'My Trips')]
-------------------------------------------------------------------------------------,CONF EMAIL
---------------------------------------------------------------------------------------------------------------,GMAIL
theLastReservationConfirmationLetter,xpath=//tbody/tr//div[contains(.,'Reservation Confirmation')]
----------------------------------------------------------------------,APT
------------------------------------------------------------------------------------,plugin controller
FFInbound,xpath=//input[contains(@onclick, "0, 0,
FFOutbound,xpath=//input[contains(@onclick, "1, 0,
------------------------------------------------------------------------------------,Alternative Date Selection
--------------------------------------------------------------------------------------,FJI Air Pacific Locators
inputTravellerEveningContactNumberFJI,xpath=//input[@id='travellersInfo[0].homePhone.phoneNumber']
--------------------------------------------------------------------------------------,CCA Air China Locators
inputCaptcha,xpath=//*[@id="captcha"]
inputMobileNumber,xpath=//*[@id="BOOK_mobilePhoneNumber"]
mobileNumberAccessCodeButton,xpath=//*[@id="BOOK_enabledButton"]
inputMobileAccessCode,xpath=//*[@id="BOOK_accessCode"]
selectOtherIdentification,id=travellersInfo[0].advancedPassengerDetails(foid)
selectOtherIdentification2,id=travellersInfo[1].advancedPassengerDetails(foid)
inputOtherIdentificationNumber,id=travellersInfo[0].advancedPassengerDetails(foidNumber)
inputOtherIdentificationNumber2,id=travellersInfo[1].advancedPassengerDetails(foidNumber)
inputOtherIdentificationNumber3,id=travellersInfo[2].advancedPassengerDetails(foidNumber)
inputTravellerPersonalPhNum,id=travellersInfo[0].personalPhone.phoneNumber
inputTravellerPersonalPhNum2,id=travellersInfo[1].personalPhone.phoneNumber
inputTravellerPersonalPhNum3,id=travellersInfo[2].personalPhone.phoneNumber
inputTravellerMobilePhoneCAA,id=travellersInfo[0].mobilePhone.phoneNumber
selectBank,select[id='creditCard.bankId']
selectIndustrialBank,xpath=//*[@id="onlineBank601"]
selectIndustrialBankCreditCard,id=creditCard707
paymentSuccessfulButton,xpath=//a[contains(text(),'Continue to issue tickets')]
paymentSuccessfulButton2,xpath=//a[@class="button2"]
paymentSuccessfulButton3,id=paymentStatusConfirmationDialogFooter
thirdPartyPageBankRes,xpath=//form[@action="B2CBankRes_cpnrCServlet"]
thirdPartyPageBankResSubmit,xpath=//input[@type="submit"]
paymentStatusConfirmationDialog,xpath=//div[@id="paymentStatusConfirmationDialog"]
--------------------------------------------------------------------------------------,STA Travel Locators
isicnumber,id=traveler[0].cardNumber
isicexpirymonth,id=traveler[0].cardExpiryMonth
isicexpiryyear,id=traveler[0].cardExpiryYear
buttonContinueSTA,xpath=//input[@class='btnContinue']
buttonBuyNowSTA,a[name='byNowButton'][onclick*='submitShoppingCart']
inputFromSTA,id=departureOriginLocationTextRT
inputToSTA,id=departureDestLocationTextRT
selectDepartMonthOnSTA,id=departureMonthYearRT
selectReturnMonthOnSTA,id=returnMonthYearRT
selectStudentTraveller,id=travelersStudentMenu
buttonBookNow1a,div.glbSearchResults_result a#book_a_0 > img[alt='Book now']
buttonBookNow1b,xpath=//img[contains(@src,'btn-booknow')]
buttonBookNow1,xpath=//a[@id='book_a_0' and contains(@onclick,'addFlightToCart')]/img
buttonBookNow1MC,div#glbFlightResultsContainer a#book_a_0 > img[alt='Book now']
buttonSearchSTA,a#btnSearch
selectMaestroStartMonth,select#startMonth
selectMaestroStartYear,select#startYear
inputMaestroIssueNumber,input#issueNumber
checkboxInsuranceTermsAndCond,input#insurTermsConditions
checkboxTermsAndCond,input#termsConditions
--------------------------------------------------------------------------------------,STA Travel PAYMENT Locators
STArbVISA,input[value='VI']
STArbMASTERCARD,input[value='CA']
STArbAMERICAN EXPRESS,input[value='AX']
STArbMAESTRO,input[value='MD']
STArbVISA DEBIT,input[value='VD']
STAinputPaymentCardNumber,input#creditCardNumber
STAselectCCExpMonth,select#expiryMonth
STAselectCCExpYear,select#expiryYear
STAinputPaymentSecurityCode,input#creditCardSecurityCode
STAinputPaymentCardHolderName,input#cardholderName
STAselectMaestroStartMonth,select#startMonth
STAselectMaestroStartYear,select#startYear
STAinputMaestroIssueNumber,input#issueNumber
STAcheckboxInsuranceTermsAndCond,input#insurTermsConditions
STAcheckboxTermsAndCond,input#termsConditions
STAcheckboxSubscribeMeToSTASpam,input#subscribe
STAbuttonPurchaseOnTop,a[onclick*='submitPaymentDetails'][name='purchasePayment']
STAbuttonPurchaseOnBottom,a[onclick*='submitPaymentDetails'][name='purchase']
STAinputAddress1,input[name='address1']
STAinputAddress2,input[name='address2']
STAinputCity,input[name='city']
STAselectCountry,select#country
STAselectState,select#state
STAinputZIP,input[name='zipCode']
confirmationNumberSTA,xpath=//span[@class="bookingRef"]
--------------------------------------------------------------,FIRST TRAVELER
selectTitle,select[id='traveler[0].title']
inputFirstName,input[id='traveler[0].firstName']
inputLastName,input[id='traveler[0].lastName']
inputMiddleName,input[id='traveler[0].middleName']
selectDayDOB,select[id='traveler[0].dayOfBirth']
selectMonthDOB,select[id='traveler[0].monthOfBirth']
selectYearDOB,select[id='traveler[0].yearOfBirth']
selectGender,select[id='traveler[0].gender']
checkboxAssignFareItem,input#cartItem_flight_1_1
checkboxAssignInsuranceItem,input#cartItem_insurance_1_1
checkboxAssignCardItem,input#cartItem_card_1_1
checkboxAssignHotelItem,input#cartItem_hotel_1_1
inputSchoolName,input[id='traveler[0].schoolName']
checkboxAcceptStudent,input[id='proof[0]']
inputEmail,input[id='traveler[0].email']
inputPhone,input[id='traveler[0].phone']
inputAltPhone,input[id='traveler[0].phoneAlt']
--------------------------------------------------------------------------------------,FFT Frontier Locators
FFTinputTravellerEveningContactAreaCode,id=travellersInfo[0].homePhone.phoneNumberAreaCode
FFTinputTravellerEveningContactNumber,id=travellersInfo[0].homePhone.phoneNumber
FFTbuttonContinue,xpath=//a[@class='button1']
discountDenDecline,xpath=//a[@class='button1']//span[text()='No Thanks']
checkHazardousTerms,id=acceptHazardousMaterialsCheckBox
--------------------------------------------------------------------------------------,CMP COPA CMGS Locators
CMPinputTravellerHomeContactAreaCode,id=travellersInfo[0].homePhone.phoneNumberAreaCode
CMPinputTravellerHomeContactNumber,id=travellersInfo[0].homePhone.phoneNumber
--------------------------------------------------------------------------------------,PAL Locators
PALinputTravellerEveningContactAreaCode,id=travellersInfo[0].homePhone.phoneNumberAreaCode
PALinputTravellerEveningContactNumber,id=travellersInfo[0].homePhone.phoneNumber
PALinputTravellerMobilePhoneCountryCode,id=travellersInfo[0].mobilePhone.phoneNumberCountryCode
PALinputTravellerMobilePhoneNumber,id=travellersInfo[0].mobilePhone.phoneNumber
paymentModeCreditCardRadio,xpath=//input[contains(@id,'radiogr-paymentMode') and @value='TDP']
selectFrom,id=outboundOption.originLocationCode
selectTo,id=outboundOption.destinationLocationCode
unselectTravelTax,id=travelTaxNo
linkCheckMIGSstatus,xpath=//a[contains(@href,'check-migs')]
--------------------------------------------------------------------------------------,AMC Locators
inputTravellerDaytimeContactCode,xpath=//input[@id='travellersInfo[0].businessPhone.phoneNumberCountryCode']
inputTravellerDaytimeContact,xpath=//input[@id='travellersInfo[0].businessPhone.phoneNumber']
--------------------------------------------------------------------------------------,SITA Locators
inputTravellerMobilePhoneAreaSITASM,id=travellersInfo[0].mobilePhone.phoneNumberAreaCode
inputTravellerMobilePhoneSITASM,id=travellersInfo[0].mobilePhone.phoneNumber
--------------------------------------------------------------------------------------,WJA Locators
seatMapBoxDeterLoc,xpath=//div[@class='seatMapBlock planeFitsWidth']|//p[text()='The seat map for this flight is not available.']
wjInsAgeInput,xpath=//*[@id="traveler[0].age"]
wjInsQuoteButton,xpath=//*[@id="insuranceGetQuoteButton"]
wjInsStandardPackage,xpath=//*[@id="insuranceOptionCP"]
wjInsRefuseOption,id=insuranceOptionRefused
WJAinputTravellerEveningContactNumber,id=travellersInfo[0].homePhone.phoneNumber
payerContactNumber,id=creditCard.cardHolderPhone.phoneNumber
--------------------------------------------------------------------------------------,MAS Locators
MASinputTravellerMobilePhoneArea,id=travellersInfo[0].mobilePhone.phoneNumberAreaCode
MASinputTravellerMobilePhone,id=travellersInfo[0].mobilePhone.phoneNumber
--------------------------------------------------------------------------------------,AIC Locators
AICinputTravellerEveningContactCountryCode,id=homePhoneNumberCountryCode
AICinputTravellerEveningContactAreaCode,id=travellersInfo[0].homePhone.phoneNumberAreaCode
AICinputTravellerEveningContactNumber,id=travellersInfo[0].homePhone.phoneNumber
AICcardholderPhoneNumber,id=creditCard.cardHolderPhone.phoneNumber
AICEmulatorSubmitButton,xpath=//input[@value='Submit']
--------------------------------------------------------------------------------------,HPT Locators
HPTinputTravellerHomeContactAreaCode,id=travellersInfo[0].homePhone.phoneNumberAreaCode
HPTinputTravellerHomeContactNumber,id=travellersInfo[0].homePhone.phoneNumber
--------------------------------------------------------------------------------------,VIR Locators
VIRcardholderCreditCardPhoneNumberCountryCode,id=creditCard.cardHolderPhone.countryCode
VIRcardholderCreditCardPhoneNumber,id=creditCard.cardHolderPhone.mobile
VIRpurchaseButton,xpath=//input[@value='Submit']
VIRclickOnAnyAvailableSeat,xpath=//area[contains(@onclick,'seatMapFramework.clickOnSeat')]
VIRclickOnAnyAvailableSeatOLD,xpath=//div[contains(@id,'plane_seat') and contains(@class,'seat')]
VIRbuttonContinue,xpath=//a[@class='button1']
VIRtcExitRowSeatSelect,id=checkboxExitRowConfirmation
VIRtcExitRowSeatSelectConfirm,id=popupExitRowTermsButtonYes
VIRconfirmSeatSelectTC,id=checkboxTermsAndConditionsConfirmation
VIRconfirmSeatSelectTCYes,id=popupTermsAndConditionsButtonYes
outboundAltCalenderTable,xpath=//descendant::div[@class="flightSelectionCalendar flightSelectionCalendarOWC  flightSelectionCalendarGT"][1]//table[@class="calendarTable"]//td//input
inboundAltCalenderTable,xpath=//descendant::div[@class="flightSelectionCalendar flightSelectionCalendarOWC  flightSelectionCalendarGT"][2]//table[@class="calendarTable"]//td//input
--------------------------------------------------------------------------------------,JBU Locators
alertDialogPopup,xpath=//divnull
alertDialogPopupClose,xpath=//divnull
JBUfareOutBoundAny,xpath=//input[contains(@id,'flightSelectGr_0')]
JBUfareInBoundAny,xpath=//input[contains(@id,'flightSelectGr_1')]
btnContinuePopUp,xpath=//span[contains(text(),'Continue')]
inputPaymentAdress1JBU,xpath=//input[@id='commonAddress.addressLine1']
inputPaymentCityJBU,xpath=//input[@id='commonAddress.city']
selectPaymentCountryJBU,xpath=//select[@id='commonAddress.country']
selectPaymentStateJBU,xpath=//select[@id='commonAddress.stateDisplay']
inputPaymentPostalCodeJBU,xpath=//input[@id='commonAddress.postalCode']
inputPaymentInsuranceNo,xpath=//input[@id='aga-Select_2']
radioTravelProtectionPurchaseNo,xpath=//div[@id='insuranceAllianz']//input[@id='aga-Select_1']
checkboxPaymentAgreeHazardMaterials,input#acceptHazardousMaterialsCheckBox
--------------------------------------------------------------------------------------,ABS Locators
cathayPacificFaresOptions,xpath=//a[contains(@onclick,'airlineCode=CX')]//following::input[@type='radio']
--------------------------------------------------------------------------------------,BEL Locators
checkCreditCard,xpath=//input[@id='formOfPayment(CREDITCARD_POS).selected']
--------------------------------------------------------------------------------------,TDP Locators
calendarTravellerAPDDateOfBirthTDP,xpath=//a[contains(@onclick,'travellersInfo[0].advancedPassengerDetails(dobDate)')]/img
--------------------------------------------------------------------------------------,CHB Locators
selectAccountFOP,id=tab_VIRTUALBANK
--------------------------------------------------------------------------------------,EDW Locators
inputTravellerMobilePhoneAreaEDW,xpath=//select[@id='travellersInfo[0].mobilePhone.phoneCountryISO2Code']
checkPaymentCreditCardEDW,xpath=//input[@id='formOfPayment(DOMESTICCREDITCARD).selected']
selectPaymentCardTypeEDW,xpath=//select[@id='domesticCreditCard.type']
--------------------------------------------------------------------------------------,TSC Locators
radioInsuranceNo,id=optionPlusGroupNo
selectTravellerAPDDateOfBirthDay,select[id='travellersInfo[0].advancedPassengerDetails(dobDay)']
selectTravellerAPDDateOfBirthMonth,select[id='travellersInfo[0].advancedPassengerDetails(dobMonth)']
selectTravellerAPDDateOfBirthYear,select[id='travellersInfo[0].advancedPassengerDetails(dobYear)']
buttonSeatsToPayment,xpath=//a[@id='pgButtonSubmit']
--------------------------------------------------------------------------------------,eSITA_A9 Locators
inputTravellerNationalIdNumber,id=travellersInfo[0].advancedPassengerDetails(nationalIdNumber)
selectTravellerNationalIdCountry,id=travellersInfo[0].advancedPassengerDetails(nationalIdCountry)
selectTravellerNationalIdExpDateDay,id=travellersInfo[0].advancedPassengerDetails(nationalIdExpireDay)
selectTravellerNationalIdExpDateMonth,id=travellersInfo[0].advancedPassengerDetails(nationalIdExpireMonth)
selectTravellerNationalIdExpDateYear,id=travellersInfo[0].advancedPassengerDetails(nationalIdExpireYear)
---------------------------------------------------------------------------,PAL Payments Page
selectPaymentCardTypePAL,id=creditCard1.type
inputPaymentCardNumberPAL,id=creditCard1.numberDisplay
selectPaymentCardExpDateMonthPAL,id=creditCard1.expirationMonth
selectPaymentCardExpDateYearPAL,id=creditCard1.expirationYear
inputPaymentSecurityCodePAL,id=creditCard1.securityCode
inputPaymentCardHolderNamePAL,id=creditCard1.cardHolderName
inputPaymentAdress1PAL,id=billingAddress1.addressLine1
inputPaymentAdress2PAL,id=billingAddress1.addressLine2
inputPaymentCityPAL,id=billingAddress1.city
selectPaymentCountryPAL,id=billingAddress1.country
selectPaymentStatePAL,id=billingAddress1.stateDisplay
inputPaymentPostalCodePAL,id=billingAddress1.postalCode