---------------------------------------------------------------------------------------------------------,MAIN TABS
flightsTab,div.mainTopServicesTabs div.servicesTabs td.air a
hotelsTab,div.mainTopServicesTabs div.servicesTabs td.hotel a
carTab,div.mainTopServicesTabs div.servicesTabs td.car a
insuranceTab,div.mainTopServicesTabs div.servicesTabs td.insurance a
linkViewcart, div.viewCartLink a
---------------------------------------------------------------------------------------------------------,LOGIN BLOCK ON HOME PAGE
divLoginBlock,div.loginBlock
buttonLogIn,div.loginBlock a#fbButtonLogin
---------------------------------------------------------------------------------------------------------,HOME PAGE
linkLogin,a[onclick*='headerLoginForm']
linkLogoff,a[onclick*='logOut']
boxUserName,div.layoutHeader div.blockUnderLogo div.auth strong[title]
---------------------------------------------------------------------------------------------------------,LOGIN FORM
inputUsername,input[name='username']
inputPassword,input[name='password']
linkCreateNewAccount,a[href*='CreateNewAccountAction']
buttonLogin,id=fbButtonLogin
checkboxRememberMe,id=rememberLogin
---------------------------------------------------------------------------------------------------------,LOGGED IN HEADER
linkMyProfile,//a[href*='ProfileIndexPageForwardAction']
---------------------------------------------------------------------------------------------------------,CREATE NEW ACCOUNT
selectTitle,id=personalTitle
inputFirstName,id=firstName
inputMiddleName,id=middleName
inputLastName,id=lastName
selectSuffix,id=nameSuffix
inputEmail,id=email
inputReTypeEmail,id=retypeEmail
inputUserName,id=username
UsernameError,tr[class='errorNoticeOuter '] * div[class='errorNotice']
buttonCheckAvailability,id=fbButtonCheckAvail
imgUserNameIsValid,span#isUsernameValid
inputPassword,id=password
inputReTypePassword,id=retypePassword
inputPasswordReminder,id=passwordReminder
radioHTML,id=emailFormatHtml
radioPlainText,id=emailFormatText
checkSpecialOffers,id=subscribeMarketingEmails
checkTermsAndCondiations,id=acceptTermsAndConditions
buttonCreateAccount,id=pgButtonCreateNewAccount
loginTitleError,xpath=//div[@class='formBlock formBlock1']//tr[contains(@class, 'errorNoticeOuter')][1]//div[@class='errorNotice']
loginFirstNameError,xpath=//div[@class='formBlock formBlock1']//tr[contains(@class, 'errorNoticeOuter')][2]//div[@class='errorNotice']
loginLastNameError,xpath=//div[@class='formBlock formBlock1']//tr[contains(@class, 'errorNoticeOuter')][4]//div[@class='errorNotice']
loginEmailError,xpath=//div[@class='formBlock formBlock1']//tr[contains(@class, 'errorNoticeOuter')][6]//div[@class='errorNotice']
loginConfirmEmailError,xpath=//div[@class='formBlock formBlock1']//tr[contains(@class, 'errorNoticeOuter')][7]//div[@class='errorNotice']
loginUsernameError,xpath=//div[@class='formBlock formBlock2']//tr[contains(@class, 'errorNoticeOuter')][1]//div[@class='errorNotice']
loginConfirmPasswordError,xpath=//div[@class='formBlock formBlock3']//tr[contains(@class, 'errorNoticeOuter')][2]//div[@class='errorNotice']
loginPasswordReminderError,xpath=//div[@class='formBlock formBlock3']//tr[contains(@class, 'errorNoticeOuter')][3]//div[@class='errorNotice']
loginTermsAndCondiationsError,xpath=//div[@class='formBlock formBlock5']//tr[contains(@class, 'errorNoticeOuter')][1]//div[@class='errorNotice']
---------------------------------------------------------------------------------------------------------,AIR SEARCH PAGE
radioRoundTrip,id=tripTypeRT
radioOneWay,id=tripTypeOW
radioMultiCity,id=tripTypeMC
inputFrom,id=outboundOption.originLocationName
inputTo,id=outboundOption.destinationLocationName
inputDepartOn,id=departureDate1
inputReturnOn,id=departureDate2
radioTravelOnTheseDates,id=flexibleSearch2
radioTravelDatesFlexible,id=flexibleSearch1
selectCabinClass,id=cabinClass
checkDirectFlightOnly,input#directFlightsOnlyControl
inputADTQuantity,id=guestTypes[0].amount
inputCNNQuantity,id=guestTypes[1].amount
inputCHDQuantity,id=guestTypes[1].amount
inputINFQuantity,id=guestTypes[2].amount
inputINSQuantity,
radioLowestFare,id=searchType1
radioBySchedule,id=searchType2
selectFareOptions,id=fareOptions
selectPreferredAirline1,id=preferredAirline1
selectPreferredAirline2,id=preferredAirline2
selectPreferredAirline3,id=preferredAirline3
buttonSearch,table[class='botButton1 botButtonSearch'] * span
buttonReset,table[class='botButton2 botButtonReset'] * span
------------------------------------------------------------------------------------------------------------,MULTICITY SEARCH
inputFromMC1,id=multiCityOptions[0].originLocationName
inputToMC1,id=multiCityOptions[0].destinationLocationName
inputDepartOnMC1,id=mc_departureDate0
inputFromMC2,id=multiCityOptions[1].originLocationName
inputToMC2,id=multiCityOptions[1].destinationLocationName
inputDepartOnMC2,id=mc_departureDate1
inputFromMC3,id=multiCityOptions[2].originLocationName
inputToMC3,id=multiCityOptions[2].destinationLocationName
inputDepartOnMC3,id=mc_departureDate2
inputFromMC4,id=multiCityOptions[3].originLocationName
inputToMC4,id=multiCityOptions[3].destinationLocationName
inputDepartOnMC4,id=mc_departureDate3
inputFromMC5,id=multiCityOptions[4].originLocationName
inputToMC5,id=multiCityOptions[4].destinationLocationName
inputDepartOnMC5,id=mc_departureDate4
---------------------------------------------------------------------------------------------------------,AIR SELECTION PAGE
buttonNext,id=pgButtonNext
outboundBlock,div[class*='flightSelectionByAirlineGT']
inboundBlock,div[class*='flightSelectionByAirlineCB']
buttonSelectFlights,id=pgButtonNext
buttonNewSearch,id=pgButtonNewSearch
---------------------------------------------------------------------------------------------------------,BY SCHEDULE SEARCH RESULT PAGE
linkFlightNumberToVerifyFlightDetails,div[id='pgFlightSelection'] form[id='AirFlightSelectForm'] div[id='availabilityLeg_0'] div[class *='flightLeg']:nth-of-type(1) * tbody >  tr:nth-of-type(1) > td[class='colFlight'] * span[class='flightNum'] > a
partOfConnectingFlight,span.transf
calendarIconRight1,div[id='pgFlightSelection'] form[id='AirFlightSelectForm'] div[id='availabilityLeg_0'] div.flightNav * td[id='nextCalendar_0']
calendarIconLeft1,div[id='pgFlightSelection'] form[id='AirFlightSelectForm'] div[id='availabilityLeg_0'] div.flightNav * td[id='prevCalendar_0']
calendarIconRight2,div[id='pgFlightSelection'] form[id='AirFlightSelectForm'] div[id='availabilityLeg_1'] div.flightNav * td[id='nextCalendar_1']
calendarIconLeft2,div[id='pgFlightSelection'] form[id='AirFlightSelectForm'] div[id='availabilityLeg_1'] div.flightNav * td[id='prevCalendar_1']
nextDayArrowOW,div[id='pgFlightSelection'] form[id='AirFlightSelectForm'] div[id='availabilityLeg_0'] div.flightNav * td.daysLinks > a:nth-of-type(2)
prevDayArrowOW,div[id='pgFlightSelection'] form[id='AirFlightSelectForm'] div[id='availabilityLeg_0'] div.flightNav * td.daysLinks > a:nth-of-type(1)
linkSearchPlusMinus3DaysInOutboundBlockOnBySchedule,div[id='pgFlightSelection'] form[id='AirFlightSelectForm'] div[id='availabilityLeg_0'] div.noFlightLeg a[onclick*='LegFlexible']
linkSearchPlusMinus3DaysInInboundBlockOnBySchedule,div[id='pgFlightSelection'] form[id='AirFlightSelectForm'] div[id='availabilityLeg_1'] div.noFlightLeg a[onclick*='LegFlexible']
calendarSearchPlusMinus3DaysInOutboundBlockOnBySchedule,div[id='pgFlightSelection'] form[id='AirFlightSelectForm'] div[id='availabilityLeg_0'] div.flightNav td.calendarTabsArea
calendarSearchPlusMinus3DaysInInboundBlockOnBySchedule,div[id='pgFlightSelection'] form[id='AirFlightSelectForm'] div[id='availabilityLeg_1'] div.flightNav td.calendarTabsArea
leg1,div[id='pgFlightSelection'] form[id='AirFlightSelectForm'] div[id='availabilityLeg_0'] input#radioGrFlight0_1
leg2,div[id='pgFlightSelection'] form[id='AirFlightSelectForm'] div[id='availabilityLeg_1'] input#radioGrFlight1_1
leg3,div[id='pgFlightSelection'] form[id='AirFlightSelectForm'] div[id='availabilityLeg_2'] input#radioGrFlight2_1
outboundBlockOnBySchedule,div[id='pgFlightSelection'] form[id='AirFlightSelectForm'] div[id='availabilityLeg_0']
inboundBlockOnBySchedule,div[id='pgFlightSelection'] form[id='AirFlightSelectForm'] div[id='availabilityLeg_1']
---------------------------------------------------------------------------------------------------------,FULL FARE SEARCH RESULT PAGE
linkDetailsInSelectionBlock,div[class^='flightSelection'][class$='Body']:nth-of-type(3) > div.headBlock td.colPrice div span.link a
buttonSelectFare1,div[class^='flightSelection'][class$='Body']:nth-of-type(2) div.buttonArea a.cbButtonSelect
---------------------------------------------------------------------------------------------------------,SUMMARY PAGE
pageSummary,div[id='pgItinerarySummary']
buttonContinueAsAGuest,id=fbButtonContinue
blockCarSummary,div.blockCarSummary
blockHotelSummary,div.blockHotelSummary
---------------------------------------------------------------------------------------------------------,LOGIN POPUP
buttonYesConfirmationDialog,id=confirmationPopupDialogYesButton
---------------------------------------------------------------------------------------------------------,TRAVELER DETAILS PAGE
selectTravellerProfileId,id=travellersInfo[0].profileId
selectTravellerType,id=travellersInfo[0].travellerType
selectTravellerTitle,id=travellersInfo[0].title
inputTravellerFirstName,id=travellersInfo[0].firstName
inputTravellerLastName,id=travellersInfo[0].lastName
inputTravellerMiddleName,id=travellersInfo[0].middleName
selectTravellerSuffix,id=travellersInfo[0].suffix
selectTravellerCitizenship,id=travellersInfo[0].citizenCountry
inputTravellerPassportNumber,id=travellersInfo[0].advancedPassengerDetails(passportNumber)
selectTravellerPassportCountry,id=travellersInfo[0].advancedPassengerDetails(passportCountry)
selectTravellerPassportExpDateDay,id=travellersInfo[0].advancedPassengerDetails(passportExpireDay)
selectTravellerPassportExpDateMonth,id=travellersInfo[0].advancedPassengerDetails(passportExpireMonth)
selectTravellerPassportExpDateYear,id=travellersInfo[0].advancedPassengerDetails(passportExpireYear)
selectTravellerFrequentFlyerProgram,id=travellersInfo[0].loyaltyMembership
selectTravellerMembershipNumber,id=travellersInfo[0].loyaltyNumber
calendarTravellerDateOfBirth,id=travellersInfo[0].advancedPassengerDetails(dobDate)
selectTravellerDateOfBirthDay,id=travellersInfo[0].travellerBirthDay
selectTravellerDateOfBirthMonth,id=travellersInfo[0].travellerBirthMonth
selectTravellerDateOfBirthYear,id=travellersInfo[0].travellerBirthYear
checkboxNamedDriver,id=travellersInfo[0].assignedItems[0]
selectTravellerProfileId2,id=travellersInfo[1].profileId
selectTravellerType2,id=travellersInfo[1].travellerType
selectTravellerTitle2,id=travellersInfo[1].title
inputTravellerFirstName2,id=travellersInfo[1].firstName
inputTravellerLastName2,id=travellersInfo[1].lastName
inputTravellerMiddleName2,id=travellersInfo[1].middleName
selectTravellerSuffix2,id=travellersInfo[1].suffix
selectTravellerCitizenship2,id=travellersInfo[1].citizenCountry
inputTravellerPassportNumber2,id=travellersInfo[1].advancedPassengerDetails(passportNumber)
selectTravellerPassportCountry2,id=travellersInfo[1].advancedPassengerDetails(passportCountry)
selectTravellerPassportExpDateDay2,id=travellersInfo[1].advancedPassengerDetails(passportExpireDay)
selectTravellerPassportExpDateMonth2,id=travellersInfo[1].advancedPassengerDetails(passportExpireMonth)
selectTravellerPassportExpDateYear2,id=travellersInfo[1].advancedPassengerDetails(passportExpireYear)
calendarTravellerDateOfBirth2,id=travellersInfo[1].advancedPassengerDetails(dobDate)
selectTravellerDateOfBirthDay2,id=travellersInfo[1].travellerBirthDay
selectTravellerDateOfBirthMonth2,id=travellersInfo[1].travellerBirthMonth
selectTravellerDateOfBirthYear2,id=travellersInfo[1].travellerBirthYear
radioTravellerGenderMale2,id=travellersInfo[1].genderMale
selectTravellerProfileId3,id=travellersInfo[2].profileId
selectTravellerType3,id=travellersInfo[2].travellerType
selectTravellerTitle3,id=travellersInfo[2].title
inputTravellerFirstName3,id=travellersInfo[2].firstName
inputTravellerLastName3,id=travellersInfo[2].lastName
inputTravellerMiddleName3,id=travellersInfo[2].middleName
selectTravellerSuffix3,id=travellersInfo[2].suffix
selectTravellerCitizenship3,id=travellersInfo[2].citizenCountry
inputTravellerPassportNumber3,id=travellersInfo[2].advancedPassengerDetails(passportNumber)
selectTravellerPassportCountry3,id=travellersInfo[2].advancedPassengerDetails(passportCountry)
selectTravellerPassportExpDateDay3,id=travellersInfo[2].advancedPassengerDetails(passportExpireDay)
selectTravellerPassportExpDateMonth3,id=travellersInfo[2].advancedPassengerDetails(passportExpireMonth)
selectTravellerPassportExpDateYear3,id=travellersInfo[2].advancedPassengerDetails(passportExpireYear)
calendarTravellerDateOfBirth3,id=travellersInfo[2].advancedPassengerDetails(dobDate)
selectTravellerDateOfBirthDay3,id=travellersInfo[2].travellerBirthDay
selectTravellerDateOfBirthMonth3,id=travellersInfo[2].travellerBirthMonth
selectTravellerDateOfBirthYear3,id=travellersInfo[2].travellerBirthYear
radioTravellerGenderMale3,id=travellersInfo[2].genderMale
selectTravellerProfileId4,id=travellersInfo[3].profileId
selectTravellerType4,id=travellersInfo[3].travellerType
selectTravellerTitle4,id=travellersInfo[3].title
inputTravellerFirstName4,id=travellersInfo[3].firstName
inputTravellerLastName4,id=travellersInfo[3].lastName
inputTravellerMiddleName4,id=travellersInfo[3].middleName
selectTravellerSuffix4,id=travellersInfo[3].suffix
selectTravellerCitizenship4,id=travellersInfo[3].citizenCountry
inputTravellerPassportNumber4,id=travellersInfo[3].advancedPassengerDetails(passportNumber)
selectTravellerPassportCountry4,id=travellersInfo[3].advancedPassengerDetails(passportCountry)
selectTravellerPassportExpDateDay4,id=travellersInfo[3].advancedPassengerDetails(passportExpireDay)
selectTravellerPassportExpDateMonth4,id=travellersInfo[3].advancedPassengerDetails(passportExpireMonth)
selectTravellerPassportExpDateYear4,id=travellersInfo[3].advancedPassengerDetails(passportExpireYear)
calendarTravellerDateOfBirth4,id=travellersInfo[3].advancedPassengerDetails(dobDate)
selectTravellerDateOfBirthDay4,id=travellersInfo[3].travellerBirthDay
selectTravellerDateOfBirthMonth4,id=travellersInfo[3].travellerBirthMonth
selectTravellerDateOfBirthYear4,id=travellersInfo[3].travellerBirthYear
radioTravellerGenderMale4,id=travellersInfo[3].genderMale
selectTravellerProfileId5,id=travellersInfo[4].profileId
selectTravellerType5,id=travellersInfo[4].travellerType
selectTravellerTitle5,id=travellersInfo[4].title
inputTravellerFirstName5,id=travellersInfo[4].firstName
inputTravellerLastName5,id=travellersInfo[4].lastName
inputTravellerMiddleName5,id=travellersInfo[4].middleName
selectTravellerSuffix5,id=travellersInfo[4].suffix
selectTravellerCitizenship5,id=travellersInfo[4].citizenCountry
inputTravellerPassportNumber5,id=travellersInfo[4].advancedPassengerDetails(passportNumber)
selectTravellerPassportCountry5,id=travellersInfo[4].advancedPassengerDetails(passportCountry)
selectTravellerPassportExpDateDay5,id=travellersInfo[4].advancedPassengerDetails(passportExpireDay)
selectTravellerPassportExpDateMonth5,id=travellersInfo[4].advancedPassengerDetails(passportExpireMonth)
selectTravellerPassportExpDateYear5,id=travellersInfo[4].advancedPassengerDetails(passportExpireYear)
calendarTravellerDateOfBirth5,id=travellersInfo[4].advancedPassengerDetails(dobDate)
selectTravellerDateOfBirthDay5,id=travellersInfo[4].travellerBirthDay
selectTravellerDateOfBirthMonth5,id=travellersInfo[4].travellerBirthMonth
selectTravellerDateOfBirthYear5,id=travellersInfo[4].travellerBirthYear
radioTravellerGenderMale5,id=travellersInfo[4].genderMale
selectTravellerProfileId6,id=travellersInfo[5].profileId
selectTravellerType6,id=travellersInfo[5].travellerType
selectTravellerTitle6,id=travellersInfo[5].title
inputTravellerFirstName6,id=travellersInfo[5].firstName
inputTravellerLastName6,id=travellersInfo[5].lastName
inputTravellerMiddleName6,id=travellersInfo[5].middleName
selectTravellerSuffix6,id=travellersInfo[5].suffix
selectTravellerCitizenship6,id=travellersInfo[5].citizenCountry
inputTravellerPassportNumber6,id=travellersInfo[5].advancedPassengerDetails(passportNumber)
selectTravellerPassportCountry6,id=travellersInfo[5].advancedPassengerDetails(passportCountry)
selectTravellerPassportExpDateDay6,id=travellersInfo[5].advancedPassengerDetails(passportExpireDay)
selectTravellerPassportExpDateMonth6,id=travellersInfo[5].advancedPassengerDetails(passportExpireMonth)
selectTravellerPassportExpDateYear6,id=travellersInfo[5].advancedPassengerDetails(passportExpireYear)
calendarTravellerDateOfBirth6,id=travellersInfo[5].advancedPassengerDetails(dobDate)
selectTravellerDateOfBirthDay6,id=travellersInfo[5].travellerBirthDay
selectTravellerDateOfBirthMonth6,id=travellersInfo[5].travellerBirthMonth
selectTravellerDateOfBirthYear6,id=travellersInfo[5].travellerBirthYear
radioTravellerGenderMale6,id=travellersInfo[5].genderMale
selectTravellerAPDDateOfBirthDay,select[id='travellersInfo[0].advancedPassengerDetails(dobDay)']
selectTravellerAPDDateOfBirthMonth,select[id='travellersInfo[0].advancedPassengerDetails(dobMonth)']
selectTravellerAPDDateOfBirthYear,select[id='travellersInfo[0].advancedPassengerDetails(dobYear)']
radioTravellerGenderMale,id=travellersInfo[0].genderMale
radioTravellerGenderFemale,id=travellersInfo[0].genderFemale
inputTravellerKnownTravellerNumber,id=travellersInfo[0].advancedPassengerDetails(redressNumber)
inputTravellerRedressNumber,id=travellersInfo[0].advancedPassengerDetails(knownTravelerNumber)
inputTravellerArrangerFirstName,id=travelArranger.firstName
inputTravellerArrangerLastName,id=travelArranger.lastName
inputTravellerEmail,id=emailAddress
inputTravellerConfirmEmail,id=confirmEmail
inputTravellerEveningContactAreaCode,id=homePhoneNumberAreaCode
inputTravellerEveningContactNumber,id=homePhoneNumber
inputTravellerEmergencyFirstName,id=emergencyContactFirstName
inputTravellerEmergencyLastName,id=emergencyContactLastName
inputTravellerRelationship,id=emergencyContactRelationship
inputTravellerEmergencyContactAreaCode,id=emergencyContactPhoneNumberAreaCode
inputTravellerEmergencyContactNumber,id=emergencyContactPhoneNumber
buttonTravellerProceedToPayment,id=pgButtonProceed
---------------------------------------------------------------------------------------------------------,PAYMENT PAGE
---------------------------------------------------------------------------------------------------------,CREDIT CARD
checkPaymentCreditCard,id=formOfPayment(CREDITCARDPASSTHROUGH).selected
selectPaymentCardType,id=creditCard.type
inputPaymentCardNumber,id=creditCard.numberDisplay
selectPaymentCardExpDateMonth,id=creditCard.expirationMonth
selectPaymentCardExpDateYear,id=creditCard.expirationYear
inputPaymentSecurityCode,id=creditCard.securityCode
inputPaymentCardHolderName,id=creditCard.cardHolderName
inputPaymentAdress1,id=billingAddress.addressLine1
inputPaymentAdress2,id=billingAddress.addressLine2
inputPaymentCity,id=billingAddress.city
selectPaymentCountry,id=billingAddress.country
selectPaymentState,id=billingAddress.stateDisplay
inputPaymentPostalCode,id=billingAddress.postalCode
checkPaymentTerms,id=acceptTermsAndConditionsCheckBox
buttonPaymentPurchase,id=pgButtonPurchase
totalPriceCreditCard,div#idFormOfPaymentTotal-CREDITCARDPASSTHROUGH
---------------------------------------------------------------------------------------------------------,GIFT CARD
checkPaymentGiftCard,id=formOfPayment(VOUCHER).selected
inputGiftCardNumber,input[name='giftCards[0].number']
inputGiftCardPin,input[name='giftCards[0].pin']
buttonCheckGiftCardBalance,id=fbButtonGiftCheck
inputGiftCardFirstName,id=commonAddress.firstName
inputGiftCardLastName,id=commonAddress.lastName
inputGiftCardAddress1,id=commonAddress.addressLine1
inputGiftCardAddress2,id=commonAddress.addressLine2
inputGiftCardCity,id=commonAddress.city
selectGiftCardCountry,id=commonAddress.country
selectGiftCardState,id=commonAddress.stateDisplay
inputGiftCardPostalCode,id=commonAddress.postalCode
totalPriceGiftCard,div#idFormOfPaymentTotal-VOUCHER
---------------------------------------------------------------------------------------------------------,BML block
logoBML,xpath=//td[@class='colCheck']//input[contains(@id, 'BILLMELATER')]/../../../td[@class='colLogo']/div
linkWhatIsBillMeLater,xpath=//td[@class='colCheck']//input[contains(@id, 'BILLMELATER')]/../../../td[@class='colDescr']//a
inputBMLFirstName,id=bml.firstName
inputBMLLastName,id=bml.lastName
inputBMLAddress1,id=bml.addressLine1
inputBMLAddress2,id=bml.addressLine2
inputBMLCity,id=bml.city
selectBMLCountry,id=bml.country
selectBMLState,id=bml.stateDisplay
inputBMLPostalCode,id=bml.postalCode
inputBMLPhone,id=bml.phone
checkboxBillMeLaterPayment,td.colCheck input[id*='BILLMELATER']
totalPriceBML,div#idFormOfPaymentTotal-BILLMELATER
---------------------------------------------------------------------------------------------------------,COPA PAYMENT PAGE
selectCreditCardCountry,id=creditCard.issuingCountrySelect
selectCreditCardCurrency,id=creditCard.currencySelect
inputCreditCardHolderName,id=creditCard.cardHolderName
---------------------------------------------------------------------------------------------------------,HEADER OF THE PAGE
linkMyProfile,a[href*='ProfileIndexPageForwardAction']
---------------------------------------------------------------------------------------------------------,ERROR BLOCK
errorBox,div[id='errorBlock']
errorText,div[id='fblogin.errorNoticeOuter.errorNotice']
---------------------------------------------------------------------------------------------------------,HOTEL SEARCH PAGE
linkHotelSearch,a[href*='HotelSearchForward.do']
inputHotelDestination,input[id='hotelSearchDestination']
selectDrillDownItem1,a[id='drilldownItem1']
inputCheckInDate,id=checkinDate
inputCheckOutDate,id=checkoutDate
inputnumberOfNights,id=numberOfNights
selectNumberOfRoom,id=hotelSearchNumberOfRooms
buttonSearchForHotels,a[onclick*='checkReservationStatus']
---------------------------------------------------------------------------------------------------------,HOTEL SEARCH RESULT
rbFirstHotel,div#HOTEL_SEARCH_RESULT_CONTEXT_ID > div:first-of-type input
buttonBookIt,div#HOTEL_SEARCH_RESULT_CONTEXT_ID > div:first-of-type div.buttonArea a[id*=hotelBookItButton]
---------------------------------------------------------------------------------------------------------,INSURANCE SEARCH PAGE
insuranceSearchPage,div[class~='insuranceMainSearchBlock']
insuranceDepartDate1,id=airportDepartDate0
insuranceDepartDate2,id=airportDepartDate1
insuranceDepartDate3,id=airportDepartDate2
insuranceLocationFrom1,id=locationNameFrom[0]
insuranceLocationFrom2,id=locationNameFrom[1]
insuranceLocationFrom3,id=locationNameFrom[2]
insuranceLocationTo1,id=locationNameTo[0]
insuranceLocationTo2,id=locationNameTo[1]
insuranceLocationTo3,id=locationNameTo[2]
insuranceResidentCountry,id=residentCountry
insuranceSeniorCitizen,id=guestTypes[0].amount
insuranceAdult,guestTypes[1].amount
insuranceChild,guestTypes[2].amount
insuranceInfant,guestTypes[3].amount
insuranceSeniorDOB,id=guestTypes[0].ages[0].dateOfBirth
insuranceAdultDOB,id=guestTypes[1].ages[0].dateOfBirth
insuranceChildDOB,guestTypes[2].ages[0].dateOfBirth
insuranceInfantDOB,guestTypes[3].ages[0].dateOfBirth
insuranceTripValue,id=insuranceSearchTripValue
insuranceResetButton,table[class='botButton2 botButtonReset'] * a
insuranceSearchButton,table[class='botButton1 botButtonSearch'] * a
---------------------------------------------------------------------------------------------------------,CAR SEARCH PAGE
selectCountryOfResidence,id=residentCountry
buttonSearch,a[onclick*='checkReservationStatus']
---------------------------------------------------------------------------------------------------------,CAR SEARCH RESULT
rbFirstCar,table#CAR_SEARCH_RESULT_CONTEXT_ID0 > tbody:nth-of-type(1) input
buttonNextOnCar,a#pgButtonNext_-1.button1
----------------------------------------------------------------------------------------------------------,POPUPs FLIGHT DETAILS
buttonClosePopUp,div#flightDetailsPopUpOuter div#flightDetailsPopUpDialog div.dialogFooter tbody > tr > td > a[onclick*='hide']
----------------------------------------------------------------------------------------------------------,BILL ME LATER PAGE
selectDayOfBirthForBML,select#date_of_birth_day_input
selectMonthOfBirthForBML,select#date_of_birth_month_input
selectYearOfBirthForBML,select#date_of_birth_year_input
checkboxAgreeForBML,input#esign_consent_input
inputSSNForBML,input#ssn_input
buttonUpdateYourBillingInfo,div#container div#contentDiv form#bml_input_form div#billingAddressDiv > table#billingTable > tbody > tr > td#updateBillingColumn > a
buttonContinueOrder,div#i_agree_div a#bml_ap_anchor_iagree
scrollPopUp,div#dlg
errorBoxOnBML,div#container > div#contentDiv > form#bml_input_form > div#outerErrorDiv > div#errorDiv
blockBilling AddressOnMBL,div#container > div#contentDiv > form#bml_input_form > div#billingAddressDiv td#billingAddressColumn  tbody
----------------------------------------------------------------------------------------------------------,CONFIRMATION PAGE
confirmationNumber,div#pgConfirmation > div.confirmationInfoBlock > div.bodyBlock tbody td.colConfirmNum > div
ticketNumberOfPassenger1,div#pgConfirmation > div.passengerInfoBlock > div.bodyBlock table > tbody:nth-of-type(1) > tr:nth-of-type(1) > td.colInfo td.colDetailDescr > span
ticketNumberOfPassenger2,div#pgConfirmation > div.passengerInfoBlock > div.bodyBlock table > tbody:nth-of-type(2) > tr:nth-of-type(1) > td.colInfo td.colDetailDescr > span
ticketNumberOfPassenger3,div#pgConfirmation > div.passengerInfoBlock > div.bodyBlock table > tbody:nth-of-type(3) > tr:nth-of-type(1) > td.colInfo td.colDetailDescr > span
ticketNumberOfPassenger4,div#pgConfirmation > div.passengerInfoBlock > div.bodyBlock table > tbody:nth-of-type(4) > tr:nth-of-type(1) > td.colInfo td.colDetailDescr > span
ticketNumberOfPassenger5,div#pgConfirmation > div.passengerInfoBlock > div.bodyBlock table > tbody:nth-of-type(5) > tr:nth-of-type(1) > td.colInfo td.colDetailDescr > span
ticketNumberOfPassenger6,div#pgConfirmation > div.passengerInfoBlock > div.bodyBlock table > tbody:nth-of-type(6) > tr:nth-of-type(1) > td.colInfo td.colDetailDescr > span
insuranceNameOfPassenger1,div#pgConfirmation > div.passengerInfoBlock > div.bodyBlock table > tbody:nth-of-type(1)  td.colInfo > div > span.insuranceName
insuranceNameOfPassenger2,div#pgConfirmation > div.passengerInfoBlock > div.bodyBlock table > tbody:nth-of-type(2)  td.colInfo > div > span.insuranceName
insuranceNameOfPassenger3,div#pgConfirmation > div.passengerInfoBlock > div.bodyBlock table > tbody:nth-of-type(3)  td.colInfo > div > span.insuranceName
insuranceNameOfPassenger4,div#pgConfirmation > div.passengerInfoBlock > div.bodyBlock table > tbody:nth-of-type(4)  td.colInfo > div > span.insuranceName
insuranceNameOfPassenger5,div#pgConfirmation > div.passengerInfoBlock > div.bodyBlock table > tbody:nth-of-type(5)  td.colInfo > div > span.insuranceName
insuranceNameOfPassenger6,div#pgConfirmation > div.passengerInfoBlock > div.bodyBlock table > tbody:nth-of-type(6)  td.colInfo > div > span.insuranceName
carNameOfPassenger1,div#pgConfirmation > div.passengerInfoBlock > div.bodyBlock table > tbody:nth-of-type(1) td.colInfo > div > span.carName
carNameOfPassenger2,div#pgConfirmation > div.passengerInfoBlock > div.bodyBlock table > tbody:nth-of-type(2) td.colInfo > div > span.carName
carNameOfPassenger3,div#pgConfirmation > div.passengerInfoBlock > div.bodyBlock table > tbody:nth-of-type(3) td.colInfo > div > span.carName
carNameOfPassenger4,div#pgConfirmation > div.passengerInfoBlock > div.bodyBlock table > tbody:nth-of-type(4) td.colInfo > div > span.carName
carNameOfPassenger5,div#pgConfirmation > div.passengerInfoBlock > div.bodyBlock table > tbody:nth-of-type(5) td.colInfo > div > span.carName
carNameOfPassenger6,div#pgConfirmation > div.passengerInfoBlock > div.bodyBlock table > tbody:nth-of-type(6) td.colInfo > div > span.carName
insuranceNumber,div#pgConfirmation span#INSURANCE_POLICY_NUM
carConfirmationNumber,div#pgConfirmation div.blockCarSummary td.confirm > div > span
totalPriceSection,#pgConfirmation > div#TOTAL_PRICE_SECTION.pageTotalPrice
inputAdditionalConfirmationEmail,div#fbConfirmationEmail input#emailAddressId
buttonSendAdditionalEmail,div#fbConfirmationEmail a#fbButtonSend
----------------------------------------------------------------------------------------------------------,CROSS SELLS SECTION
----------------------------------------------------------------------------------------------------------,CAR CROSSSELLS
carCrossSellsBox,div.blockCarCrossSell
buttonAddCar,td.crossSellOffersArea > div#CAR_OFFERS_result tbody > tr > td:nth-of-type(1) div.addButton a
----------------------------------------------------------------------------------------------------------,INSURANCE CROSSSELLS
checkboxYes,td.check input#insurancePurchase
----------------------------------------------------------------------------------------------------------,FARE BREAK DOWN POPUP
linkSurcharges, a[onclick*='showSurcharges']
linkTaxes,a[onclick*='showAirTaxAndFees']
buttonCloseFBDPopUp,div#airFareBreakdownPopUpOuter div#airFareBreakdownPopUpDialog div.dialogFooter tbody > tr > td > a[onclick*='hide']
-----------------------------------------------------------------------------------------------------------,TAXES POPUP
buttonCloseTaxesPopUp,div#taxAndFeesPopUpOuter div#taxAndFeesPopUpDialog div.dialogFooter tbody > tr > td > a[onclick*='hide']
-----------------------------------------------------------------------------------------------------------,SURCHADGES POPUP
buttonCloseSurchargesPopUp,div#surchargesPopUpOuter div#surchargesPopUpDialog div.dialogFooter tbody > tr > td > a[onclick*='hide']