popupPageLoginRegister,xpath=//*[@id='reservationSearchResultLoginPopupDialog']
switchToEnglish,xpath=//a[contains(text(),'English')]
--------------------------------------------------------------------------------------,WEST AIR REGISTER AND LOGIN POPUP DIALOG
radioBookNoLogging,xpath=//input[@id='radiogr1-BOOK']
radioBookWithLogging,xpath=//input[@id='radiogr1-LOGIN_BOOK']
inputMobileNumber,xpath=//input[@id='mobilePhoneNumber_input']
requestMobileAccessCode,a#BOOK_enabledButton > span > span
inputAccessCode,xpath=//input[@id='accessCode_input']
waCaptchaInput,xpath=//input[@id='captcha_input']
proceedButton,a#fbProceedButton > span > span
--------------------------------------------------------------------------------------,TRAVELLERS PAGE
travelContractorLastName,xpath=//input[@id='travelArranger.lastName']
travelContractorFirstName,xpath=//input[@id='travelArranger.firstName']
emailAddress,#emailAddress
contactNumber,xpath=//input[@id='travellersInfo[0].mobilePhone.phoneNumber']
continueButton,css=#pgButtonProceed > span > span
--------------------------------------------------------------------------------------,SEATS RESERVATION PAGE
buttonNext,#pgButtonNext > span > span
finishSeatsSelection,xpath=//a[@id='pgButtonSubmit']/span/span
--------------------------------------------------------------------------------------,PAYMENTS PAGE
expressPayTab,#tab_VIRTUALBANK > span
checkPaymentTerms,id=acceptTermsAndConditionsCheckBox
alipayExpress,#virtualBank801
purchaseButton,xpath=//a[@id='pgButtonPurchase']/span/span
---------------------------------------------------------------------------------------------------------,FIRST TRAVELER
travellerLastName,xpath=//input[@id='travellersInfo[0].lastName']
travellerFirstName,xpath=//input[@id='travellersInfo[0].firstName']
passengerTravelDocument,xpath=//select[@id='travellersInfo[0].advancedPassengerDetails(foid)']
passengerTravelDocumentNumber,xpath=//input[@id='travellersInfo[0].advancedPassengerDetails(foidNumber)']
passengerPhoneNumber,xpath=//input[@id='travellersInfo[0].personalPhone.phoneNumber']
---------------------------------------------------------------------------------------------------------,SECOND TRAVELER
travellerLastName1,xpath=//input[@id='travellersInfo[1].lastName']
travellerFirstName1,xpath=//input[@id='travellersInfo[1].firstName']
passengerTravelDocument1,xpath=//select[@id='travellersInfo[1].advancedPassengerDetails(foid)']
passengerTravelDocumentNumber1,xpath=//input[@id='travellersInfo[1].advancedPassengerDetails(foidNumber)']
passengerPhoneNumber1,xpath=//input[@id='travellersInfo[1].personalPhone.phoneNumber']
calendarTravellerDateOfBirth1,xpath=//select[@id='travellersInfo[1].travellerBirthDay']
selectTravellerDateOfBirthMonth1,xpath=//select[@id='travellersInfo[1].travellerBirthMonth']
selectTravellerDateOfBirthYear1,xpath=//select[@id='travellersInfo[1].travellerBirthYear']
---------------------------------------------------------------------------------------------------------,THIRD TRAVELER
travellerLastName2,xpath=//input[@id='travellersInfo[2].lastName']
travellerFirstName2,xpath=//input[@id='travellersInfo[2].firstName']
passengerTravelDocument2,xpath=//select[@id='travellersInfo[2].advancedPassengerDetails(foid)']
passengerTravelDocumentNumber2,xpath=//input[@id='travellersInfo[2].advancedPassengerDetails(foidNumber)']
passengerPhoneNumber2,xpath=//input[@id='travellersInfo[2].personalPhone.phoneNumber']
calendarTravellerDateOfBirth2,xpath=//select[@id='travellersInfo[2].travellerBirthDay']
selectTravellerDateOfBirthMonth2,xpath=//select[@id='travellersInfo[2].travellerBirthMonth']
selectTravellerDateOfBirthYear2,xpath=//select[@id='travellersInfo[2].travellerBirthYear']
---------------------------------------------------------------------------------------------------------,TRAVELER 4
travellerLastName3,xpath=//input[@id='travellersInfo[3].lastName']
travellerFirstName3,xpath=//input[@id='travellersInfo[3].firstName']
passengerTravelDocument3,xpath=//select[@id='travellersInfo[3].advancedPassengerDetails(foid)']
passengerTravelDocumentNumber3,xpath=//input[@id='travellersInfo[3].advancedPassengerDetails(foidNumber)']
passengerPhoneNumber3,xpath=//input[@id='travellersInfo[3].personalPhone.phoneNumber']
calendarTravellerDateOfBirth3,xpath=//select[@id='travellersInfo[3].travellerBirthDay']
selectTravellerDateOfBirthMonth3,xpath=//select[@id='travellersInfo[3].travellerBirthMonth']
selectTravellerDateOfBirthYear3,xpath=//select[@id='travellersInfo[3].travellerBirthYear']
---------------------------------------------------------------------------------------------------------,TRAVELER 5
travellerLastName4,xpath=//input[@id='travellersInfo[4].lastName']
travellerFirstName4,xpath=//input[@id='travellersInfo[4].firstName']
passengerTravelDocument4,xpath=//select[@id='travellersInfo[4].advancedPassengerDetails(foid)']
passengerTravelDocumentNumber4,xpath=//input[@id='travellersInfo[4].advancedPassengerDetails(foidNumber)']
passengerPhoneNumber4,xpath=//input[@id='travellersInfo[4].personalPhone.phoneNumber']
calendarTravellerDateOfBirth4,xpath=//select[@id='travellersInfo[5].travellerBirthDay']
selectTravellerDateOfBirthMonth4,xpath=//select[@id='travellersInfo[5].travellerBirthMonth']
selectTravellerDateOfBirthYear4,xpath=//select[@id='travellersInfo[5].travellerBirthYear']
---------------------------------------------------------------------------------------------------------,EXTERNAL ALIPAY EXPRESS PAGE
continuePaymentButton,xpath=//a[contains(text(),'< 登录账户付款')]