YXXYYC,,
YXXYDF,,
YXXYEG,,
YXXYMM,,
YXXYQU,,
YXXYHZ,,
YXXYHM,,
YXXYKA,,
YXXYLW,,
YXXYKF,,
YXXYXU,,
YXXYQM,,
YXXYUL,,
YXXYOW,,
YXXYQB,,
YXXYQR,,
YXXYXE,,
YXXYYT,,
YXXYQY,,
YXXYQT,,
YXXYYZ,,
YXXYQG,,
YXXYWG,,
YXXYZF,,
YYCYXX,,
YYCYYG,,
YYCYQQ,,
YYCYDF,,
YYCYEG,,
YYCYMM,,
YYCYQU,,
YYCYHZ,,
YYCYHM,,
YYCYKA,,
YYCYLW,,
YYCYKF,,
YYCYXU,,
YYCYQM,,
YYCYUL,,
YYCYOW,,
YYCYXS,,
YYCYQB,,
YYCYQR,,
YYCYXE,,
YYCYYT,,
YYCYQY,,
YYCYQT,,
YYCYYZ,,
YYCYVR,,
YYCYYJ,,
YYCYXY,,
YYCYQG,,
YYCYWG,,
YYCYZF,,
YYGYXX,,
YYGYCC,,
YYGYQQ,,
YYGYEG,,
YYGYMM,,
YYGYQU,,
YYGYKA,,
YYGYLW,,
YYGYUL,,
YYGYOW,,
YYGYXS,,
YYGYQB,,
YYGYQR,,
YYGYXE,,
YYGYQT,,
YYGYYZ,,
YYGYVR,,
YYGYYJ,,
YYGYXY,,
YYGYWG,,
YYGYZF,,
YQQYYC,,
YQQYYG,,
YQQYDF,,
YQQYEG,,
YQQYMM,,
YQQYQU,,
YQQYHZ,,
YQQYHM,,
YQQYKA,,
YQQYLW,,
YQQYKF,,
YQQYXU,,
YQQYQM,,
YQQYUL,,
YQQYOW,,
YQQYQR,,
YQQYXE,,
YQQYYT,,
YQQYQY,,
YQQYQT,,
YQQYYZ,,
YQQYQG,,
YQQYWG,,
YQQYZF,,
YDFYXX,,
YDFYYC,,
YDFYQQ,,
YDFYEG,,
YDFYMM,,
YDFYQU,,
YDFYKA,,
YDFYLW,,
YDFYUL,,
YDFYOW,,
YDFYXS,,
YDFYQB,,
YDFYQR,,
YDFYXE,,
YDFYQT,,
YDFYYZ,,
YDFYVR,,
YDFYYJ,,
YDFYXY,,
YDFYWG,,
YDFYZF,,
YEGYXX,,
YEGYYC,,
YEGYYG,,
YEGYQQ,,
YEGYDF,,
YEGYMM,,
YEGYQU,,
YEGYHZ,,
YEGYHM,,
YEGYKA,,
YEGYLW,,
YEGYKF,,
YEGYXU,,
YEGYQM,,
YEGYUL,,
YEGYOW,,
YEGYXS,,
YEGYQB,,
YEGYQR,,
YEGYXE,,
YEGYYT,,
YEGYQY,,
YEGYQT,,
YEGYYZ,,
YEGYVR,,
YEGYYJ,,
YEGYXY,,
YEGYQG,,
YEGYWG,,
YEGYZF,,
YMMYXX,,
YMMYYC,,
YMMYYG,,
YMMYQQ,,
YMMYDF,,
YMMYEG,,
YMMYQU,,
YMMYHZ,,
YMMYHM,,
YMMYKA,,
YMMYLW,,
YMMYKF,,
YMMYXU,,
YMMYQM,,
YMMYUL,,
YMMYOW,,
YMMYXS,,
YMMYQB,,
YMMYQR,,
YMMYXE,,
YMMYYT,,
YMMYQY,,
YMMYQT,,
YMMYYZ,,
YMMYVR,,
YMMYYJ,,
YMMYXY,,
YMMYQG,,
YMMYWG,,
YMMYZF,,
YQUYXX,,
YQUYYC,,
YQUYYG,,
YQUYQQ,,
YQUYDF,,
YQUYEG,,
YQUYMM,,
YQUYHZ,,
YQUYHM,,
YQUYKA,,
YQUYLW,,
YQUYKF,,
YQUYXU,,
YQUYQM,,
YQUYUL,,
YQUYOW,,
YQUYXS,,
YQUYQB,,
YQUYQR,,
YQUYXE,,
YQUYYT,,
YQUYQY,,
YQUYQT,,
YQUYYZ,,
YQUYVR,,
YQUYYJ,,
YQUYXY,,
YQUYQG,,
YQUYWG,,
YQUYZF,,
YHZYXX,,
YHZYYC,,
YHZYQQ,,
YHZYEG,,
YHZYMM,,
YHZYQU,,
YHZYHM,,
YHZYKA,,
YHZYLW,,
YHZYUL,,
YHZYOW,,
YHZYXS,,
YHZYQB,,
YHZYQR,,
YHZYXE,,
YHZYYT,,
YHZYQT,,
YHZYYZ,,
YHZYVR,,
YHZYYJ,,
YHZYXY,,
YHZYWG,,
YHZYZF,,
YHMYXX,,
YHMYYC,,
YHMYQQ,,
YHMYEG,,
YHMYMM,,
YHMYQU,,
YHMYHZ,,
YHMYKA,,
YHMYLW,,
YHMYQM,,
YHMYXS,,
YHMYQR,,
YHMYXE,,
YHMYVR,,
YHMYYJ,,
YHMYXY,,
YHMYWG,,
YHMYZF,,
YKAYXX,,
YKAYYC,,
YKAYYG,,
YKAYQQ,,
YKAYDF,,
YKAYEG,,
YKAYMM,,
YKAYQU,,
YKAYHZ,,
YKAYHM,,
YKAYKF,,
YKAYXU,,
YKAYQM,,
YKAYUL,,
YKAYOW,,
YKAYXS,,
YKAYQB,,
YKAYQR,,
YKAYXE,,
YKAYYT,,
YKAYQY,,
YKAYQT,,
YKAYYZ,,
YKAYVR,,
YKAYYJ,,
YKAYXY,,
YKAYQG,,
YKAYWG,,
YKAYZF,,
YLWYXX,,
YLWYYC,,
YLWYYG,,
YLWYQQ,,
YLWYDF,,
YLWYEG,,
YLWYMM,,
YLWYQU,,
YLWYHZ,,
YLWYHM,,
YLWYKF,,
YLWYXU,,
YLWYQM,,
YLWYUL,,
YLWYOW,,
YLWYXS,,
YLWYQB,,
YLWYQR,,
YLWYXE,,
YLWYYT,,
YLWYQY,,
YLWYQT,,
YLWYYZ,,
YLWYVR,,
YLWYYJ,,
YLWYXY,,
YLWYQG,,
YLWYWG,,
YLWYZF,,
YKFYXX,,
YKFYYC,,
YKFYQQ,,
YKFYEG,,
YKFYMM,,
YKFYQU,,
YKFYLW,,
YKFYXS,,
YKFYQR,,
YKFYXE,,
YKFYVR,,
YKFYYJ,,
YKFYXY,,
YKFYZF,,
YXUYXX,,
YXUYYC,,
YXUYQQ,,
YXUYEG,,
YXUYMM,,
YXUYQU,,
YXUYKA,,
YXUYLW,,
YXUYXS,,
YXUYQR,,
YXUYXE,,
YXUYVR,,
YXUYYJ,,
YXUYXY,,
YXUYWG,,
YXUYZF,,
YQMYXX,,
YQMYYC,,
YQMYQQ,,
YQMYEG,,
YQMYMM,,
YQMYQU,,
YQMYHM,,
YQMYKA,,
YQMYLW,,
YQMYUL,,
YQMYOW,,
YQMYXS,,
YQMYQB,,
YQMYQR,,
YQMYXE,,
YQMYQT,,
YQMYYZ,,
YQMYVR,,
YQMYYJ,,
YQMYXY,,
YQMYWG,,
YQMYZF,,
YULYXX,,
YULYYC,,
YULYYG,,
YULYQQ,,
YULYDF,,
YULYEG,,
YULYMM,,
YULYQU,,
YULYHZ,,
YULYKA,,
YULYLW,,
YULYQM,,
YULYXS,,
YULYQR,,
YULYXE,,
YULYYT,,
YULYQY,,
YULYQT,,
YULYYZ,,
YULYVR,,
YULYYJ,,
YULYXY,,
YULYWG,,
YULYZF,,
YOWYXX,,
YOWYYC,,
YOWYYG,,
YOWYQQ,,
YOWYDF,,
YOWYEG,,
YOWYMM,,
YOWYQU,,
YOWYHZ,,
YOWYKA,,
YOWYLW,,
YOWYQM,,
YOWYXS,,
YOWYQB,,
YOWYQR,,
YOWYXE,,
YOWYYT,,
YOWYQY,,
YOWYQT,,
YOWYYZ,,
YOWYVR,,
YOWYYJ,,
YOWYXY,,
YOWYWG,,
YOWYZF,,
YXSYYC,,
YXSYYG,,
YXSYDF,,
YXSYEG,,
YXSYMM,,
YXSYQU,,
YXSYHZ,,
YXSYHM,,
YXSYKA,,
YXSYLW,,
YXSYKF,,
YXSYXU,,
YXSYQM,,
YXSYUL,,
YXSYOW,,
YXSYQB,,
YXSYQR,,
YXSYXE,,
YXSYYT,,
YXSYQY,,
YXSYQT,,
YXSYYZ,,
YXSYVR,,
YXSYXY,,
YXSYQG,,
YXSYWG,,
YXSYZF,,
YQBYXX,,
YQBYYC,,
YQBYYG,,
YQBYQQ,,
YQBYDF,,
YQBYEG,,
YQBYMM,,
YQBYQU,,
YQBYHZ,,
YQBYKA,,
YQBYLW,,
YQBYQM,,
YQBYOW,,
YQBYXS,,
YQBYQR,,
YQBYXE,,
YQBYYT,,
YQBYQY,,
YQBYQT,,
YQBYYZ,,
YQBYVR,,
YQBYYJ,,
YQBYXY,,
YQBYWG,,
YQBYZF,,
YQRYXX,,
YQRYYC,,
YQRYYG,,
YQRYQQ,,
YQRYDF,,
YQRYEG,,
YQRYMM,,
YQRYQU,,
YQRYHZ,,
YQRYHM,,
YQRYKA,,
YQRYLW,,
YQRYKF,,
YQRYXU,,
YQRYQM,,
YQRYUL,,
YQRYOW,,
YQRYXS,,
YQRYQB,,
YQRYYT,,
YQRYQY,,
YQRYQT,,
YQRYYZ,,
YQRYVR,,
YQRYYJ,,
YQRYXY,,
YQRYQG,,
YQRYWG,,
YQRYZF,,
YXEYXX,,
YXEYYC,,
YXEYYG,,
YXEYQQ,,
YXEYDF,,
YXEYEG,,
YXEYMM,,
YXEYQU,,
YXEYHZ,,
YXEYHM,,
YXEYKA,,
YXEYLW,,
YXEYKF,,
YXEYXU,,
YXEYQM,,
YXEYUL,,
YXEYOW,,
YXEYXS,,
YXEYQB,,
YXEYYT,,
YXEYQY,,
YXEYQT,,
YXEYYZ,,
YXEYVR,,
YXEYYJ,,
YXEYXY,,
YXEYQG,,
YXEYWG,,
YXEYZF,,
YYTYXX,,
YYTYYC,,
YYTYQQ,,
YYTYEG,,
YYTYMM,,
YYTYQU,,
YYTYHZ,,
YYTYHM,,
YYTYKA,,
YYTYLW,,
YYTYUL,,
YYTYOW,,
YYTYXS,,
YYTYQB,,
YYTYQR,,
YYTYXE,,
YYTYQT,,
YYTYYZ,,
YYTYVR,,
YYTYYJ,,
YYTYXY,,
YYTYWG,,
YYTYZF,,
YQYYXX,,
YQYYYC,,
YQYYQQ,,
YQYYEG,,
YQYYMM,,
YQYYQU,,
YQYYKA,,
YQYYLW,,
YQYYUL,,
YQYYOW,,
YQYYXS,,
YQYYQB,,
YQYYQR,,
YQYYXE,,
YQYYQT,,
YQYYYZ,,
YQYYVR,,
YQYYYJ,,
YQYYXY,,
YQYYWG,,
YQYYZF,,
YQTYXX,,
YQTYYC,,
YQTYYG,,
YQTYQQ,,
YQTYDF,,
YQTYEG,,
YQTYMM,,
YQTYQU,,
YQTYHZ,,
YQTYKA,,
YQTYLW,,
YQTYQM,,
YQTYUL,,
YQTYOW,,
YQTYXS,,
YQTYQB,,
YQTYQR,,
YQTYXE,,
YQTYYT,,
YQTYQY,,
YQTYYZ,,
YQTYVR,,
YQTYYJ,,
YQTYXY,,
YQTYWG,,
YQTYZF,,
YYZYXX,,
YYZYYC,,
YYZYYG,,
YYZYQQ,,
YYZYDF,,
YYZYEG,,
YYZYMM,,
YYZYQU,,
YYZYHZ,,
YYZYKA,,
YYZYLW,,
YYZYQM,,
YYZYUL,,
YYZYOW,,
YYZYXS,,
YYZYQB,,
YYZYQR,,
YYZYXE,,
YYZYYT,,
YYZYQY,,
YYZYQT,,
YYZYVR,,
YYZYYJ,,
YYZYXY,,
YYZYWG,,
YYZYZF,,
YVRYYC,,
YVRYYG,,
YVRYDF,,
YVRYEG,,
YVRYMM,,
YVRYQU,,
YVRYHZ,,
YVRYHM,,
YVRYKA,,
YVRYLW,,
YVRYKF,,
YVRYXU,,
YVRYQM,,
YVRYUL,,
YVRYOW,,
YVRYXS,,
YVRYQB,,
YVRYQR,,
YVRYXE,,
YVRYYT,,
YVRYQY,,
YVRYQT,,
YVRYYZ,,
YVRYXY,,
YVRYQG,,
YVRYWG,,
YVRYZF,,
YYJYYC,,
YYJYYG,,
YYJYDF,,
YYJYEG,,
YYJYMM,,
YYJYQU,,
YYJYHZ,,
YYJYHM,,
YYJYKA,,
YYJYLW,,
YYJYKF,,
YYJYXU,,
YYJYQM,,
YYJYUL,,
YYJYOW,,
YYJYQB,,
YYJYQR,,
YYJYXE,,
YYJYYT,,
YYJYQY,,
YYJYQT,,
YYJYYZ,,
YYJYQG,,
YYJYWG,,
YYJYZF,,
YXYYYC,,
YXYYYG,,
YXYYDF,,
YXYYEG,,
YXYYMM,,
YXYYQU,,
YXYYHZ,,
YXYYHM,,
YXYYKA,,
YXYYLW,,
YXYYKF,,
YXYYXU,,
YXYYQM,,
YXYYUL,,
YXYYOW,,
YXYYXS,,
YXYYQB,,
YXYYQR,,
YXYYXE,,
YXYYYT,,
YXYYQY,,
YXYYYZ,,
YXYYVR,,
YXYYQG,,
YXYYWG,,
YXYYZF,,
YQGYXX,,
YQGYYC,,
YQGYQQ,,
YQGYEG,,
YQGYMM,,
YQGYQU,,
YQGYKA,,
YQGYLW,,
YQGYXS,,
YQGYQR,,
YQGYXE,,
YQGYVR,,
YQGYYJ,,
YQGYXY,,
YQGYWG,,
YQGYZF,,
YWGYXX,,
YWGYYC,,
YWGYYG,,
YWGYQQ,,
YWGYDF,,
YWGYEG,,
YWGYMM,,
YWGYQU,,
YWGYHZ,,
YWGYHM,,
YWGYKA,,
YWGYLW,,
YWGYXU,,
YWGYQM,,
YWGYUL,,
YWGYOW,,
YWGYXS,,
YWGYQB,,
YWGYQR,,
YWGYXE,,
YWGYYT,,
YWGYQY,,
YWGYQT,,
YWGYYZ,,
YWGYVR,,
YWGYYJ,,
YWGYXY,,
YWGYQG,,
YWGYZF,,
YZFYXX,,
YZFYYC,,
YZFYYG,,
YZFYQQ,,
YZFYDF,,
YZFYEG,,
YZFYMM,,
YZFYQU,,
YZFYHZ,,
YZFYHM,,
YZFYKA,,
YZFYLW,,
YZFYKF,,
YZFYXU,,
YZFYQM,,
YZFYUL,,
YZFYOW,,
YZFYXS,,
YZFYQB,,
YZFYQR,,
YZFYXE,,
YZFYYT,,
YZFYQY,,
YZFYQT,,
YZFYYZ,,
YZFYVR,,
YZFYYJ,,
YZFYXY,,
YZFYQG,,
YZFYWG,,