{
  "languageCode" : "en",
  "originDestination" : [ {
    "origin" : {
      "date" : "2015-05-25",
      "windowBefore" : "2",
      "windowAfter" : "2",
      "time" : "14:00:00",
      "locationRef" : {
        "uri" : "/geo/locations/A/JFK"
      }
    },
    "destination" : {
      "locationRef" : {
        "uri" : "/geo/locations/A/BOS"
      }
    }
  }, {
    "origin" : {
      "date" : "2015-05-30",
      "windowBefore" : "3",
      "windowAfter" : "3",
      "time" : "15:00:00",
      "locationRef" : {
        "uri" : "/geo/locations/A/BOS"
      }
    },
    "destination" : {
      "locationRef" : {
        "uri" : "/geo/locations/A/JFK"
      }
    }
  } ],
  "travelerComposition" : [ {
    "dateOfBirth" : "1995-12-10",
    "typeRef" : {
      "uri" : "/info/traveler-types/AIR/ADT"
    }
  } ],
  "pos" : "JETBLUEWEB_US",
  "preferences" : {
    "vendor" : {
      "vendorRef" : {
        "uri" : "/info/air/airlines/B6"
      }
    }
  }
}