{
	"userSessionId" : "11",
    "languageCode": "en",
    "travelerRef": {
        "uri": "/reservations/A000049229/travelers/1"
    },
    "flightSegmentRef": {
        "uri": "/reservations/A000049229/items/1/flight-segments/1"
    },
    "pos": "JETBLUEWEB_US"
}