{
  "userSessionId" : "12345",
  "languageCode" : "en",
  "travelerAssignment" : [ {
    "compositionRef" : {
      "uri" : "/offers/550a7e65e4b0b0689e12cba3/air/traveler-compositions/0"
    },
    "travelerRef" : {
      "uri" : "/reservations/A000002021/travelers/1"
    }
  } ],
  "item" : [ {
    "book" : "false",
    "offerRef" : {
      "uri" : "/offers/550a7e65e4b0b0689e12cba3"
    }
  } ],
  "pos" : "JETBLUEWEB_US"
}