{
	"userSessionId" : "111",
  "languageCode" : "en",
  "item" : [ {
    "book" : "true",
    "offerRef" : {
      "uri" : "/offers/54e46a0be740d083e3652e61"
    }
  } ],
  "travelerAssignment" : [ {
    "compositionRef" : {
      "uri" : "/offers/54e46a0be740d083e3652e61/air/traveler-compositions/0"
    },
    "air" : {
    },
    "travelerRef" : {
      "uri" : "travelers/1"
    }
  } ],
      "traveler": [

        {

            "id": "1",

            "uri": "travelers/1",

			"dateOfBirth": "1985-12-10",

			"gender": "M",

			"redressNumber" : "112233",

			"knownTravelerNumber" : "234234",

			"placeOfBirth" : "London, UK",

            "customer": "true",

			"name" : {

				"first" : "John",

				"midle" : "Mort",

				"last" : "Smith",

				"titleRef" : {

					"id" : "MR",

					"uri" : "/info/traveler-name-titles/MR"

				},

				"suffixRef" : {

					"id" : "JR",

					"uri" : "/info/traveler-name-suffixes/JR"

				}

			},

			"email": [

                {

                    "id": "1",

                    "uri": "travelers/1/emails/1",

                    "address": "john.smith@gmail.com",

					"default": "true",

					"typeRef": {

						"id" : "1.EAT",

						"uri" : "/info/email-types/1.EAT"

					}

                }

            ],

			"phone": [

                {

                    "id": "1",

                    "uri": "travelers/1/phones/1",

                    "number": "1234567",

					"countryCode" : "111",

					"areaCode" : "222",

					"extension" : "333",

					"default": "true",

					"typeRef": {

						"id" : "5.PUT",

						"uri" : "/info/phone-types/5.PUT"

					}

                }

            ],

			"address": [

                {

                    "id": "1",

                    "uri": "travelers/1/addresses/1",

                    "addressLine1": "travelnow",

					"city": "Hamilton",

                    "countryCode": "CA",

                    "stateCode": "ON",

					"postalCode": "L0K123",

					"default": "true",

					"typeRef" : {

						"id" : "7.AUT",

						"uri" : "/info/address-types/7.AUT"

					}

				}

            ],

			"FOID": [

                {

                    "id": "1",

                    "uri": "travelers/1/foids/1",

                    "number": "123123123",

					"effectiveDate": "2014-06-14",

                    "expiryDate": "2015-06-14",

					"issuingLocation" : "CA",

					"applicableLocation" : "CA",

					"typeRef" : {

						"id" : "2.DOC",

						"uri" : "/info/foid-types/2.DOC"

					}

                }

            ],

			"typeRef" : {

				"id" : "ADT",

				"uri" : "/info/traveler-types/AIR/ADT"

			},

			"extraInfo" : [

			],
			"profileRef": {

			},

			"loyalty": [

			],

            "citizenship": {

				"countryRef" : {

					"id" : "CA",

					"uri" : "/geo/countries/CA"

				}

			}

        }

    ],
	"travelerExtraSeat": [
        {
            "id": "1",
            "uri": "traveler-extra-seats/1",
            "travelerRef": {
                "uri": "travelers/1"
            }
        }
    ],
  "pos" : "JETBLUEWEB_US"
}