#Business Best Price,FF_BUSINESS_BESTPRICE
#Business Best Price,FF_BUSINESS_BESTPRICE_DEC01
#Business Flexible,FF_BUSINESS_FLEXI
#Business Flexible,FF_BUSINESS_FLEXI_DEC01
#Economy Affordable,FF_ECONOMY_AFFORDABLE
Economy Affordable,FF_ECONOMY_AFFORDABLE_DEC01
#Economy Best Price,FF_ECONOMY_BESTPRICE
Economy Best Price,FF_ECONOMY_BESTPRICE_DEC01
#Economy Flexible,FF_ECONOMY_FLEXI
Economy Flexible,FF_ECONOMY_FLEXI_DEC01